{
  "new_edits": false,
  "docs": [
{ "_id": "summary/aur/BAR",   "main": "well/cistern/pit", "dubious": true },
{ "_id": "summary/aur/BASh",  "main": "stink/be odious", "dubious": true },
{ "_id": "summary/aur/BDD",   "main": "be by oneself/alone", "dubious": true },
{ "_id": "summary/aur/BDLH", "_rev": "1-1fb450923bef7c5a23d582570bfb6ef7", "main": "BDLH", "dubious": true },
{ "_id": "summary/aur/BEL",   "main": "be terrified/hasten", "dubious": true },
{ "_id": "summary/aur/BEM",   "main": "beast/animal/cattle", "dubious": true },
{ "_id": "summary/aur/BEME", "_rev": "3-2fff4064ec0049b69671611fe18005f1", "main": "beast/animal", "dubious": true },
{ "_id": "summary/aur/BEU", "_rev": "1-0245632dccb34de4c55afe1aef7e7881", "main": "void", "dubious": true },
{ "_id": "summary/aur/BGD",   "main": "act treacherously", "dubious": true },
{ "_id": "summary/aur/BHN",   "main": "examine/try/prove/test", "dubious": true },
{ "_id": "summary/aur/BHR",   "main": "choose", "dubious": true },
{ "_id": "summary/aur/BKE",   "main": "weep/bewail", "dubious": true },
{ "_id": "summary/aur/BKR",   "main": "be first-born", "dubious": true },
{ "_id": "summary/aur/BL",    "main": "not (uncommon poetic synonym of LA, likely carrying an additional sense of defect or failure from BLE)", "dubious": true },
{ "_id": "summary/aur/BLE",   "main": "be worn out/old/defective/deficient", "dubious": true },
{ "_id": "summary/aur/BLL",   "main": "mingle/mix/confuse/confound", "dubious": true },
{ "_id": "summary/aur/BLO",   "main": "engulf/swallow down/swallow up", "dubious": true },
{ "_id": "summary/aur/BME",   "main": "high place (usually particular places of worship of deities)", "dubious": true },
{ "_id": "summary/aur/BNE",   "main": "build", "dubious": true },
{ "_id": "summary/aur/BOD",   "main": "away from", "dubious": true },
{ "_id": "summary/aur/BOL",   "main": "lord/rule", "dubious": true },
{ "_id": "summary/aur/BOR",   "main": "burn/consume", "dubious": true },
{ "_id": "summary/aur/BOT",   "main": "startle/scare/fall upon", "dubious": true },
{ "_id": "summary/aur/BQO",   "main": "cleave/break open/break through", "dubious": true },
{ "_id": "summary/aur/BQSh",  "main": "seek", "dubious": true },
{ "_id": "summary/aur/BRH",   "main": "go through/flee", "dubious": true },
{ "_id": "summary/aur/BRQ",   "main": "flash/lightning", "dubious": true },
{ "_id": "summary/aur/BRR",   "main": "purify/select/cleanse", "dubious": true },
{ "_id": "summary/aur/BRSh",  "main": "cypress(?)/fir(?)", "dubious": true },
{ "_id": "summary/aur/BRT",   "main": "bind in covenant", "dubious": true },
{ "_id": "summary/aur/BShM",  "main": "balsam(?)", "dubious": true },
{ "_id": "summary/aur/BT",    "main": "daughter", "dubious": true },
{ "_id": "summary/aur/BThH",  "main": "trust/security", "dubious": true },
{ "_id": "summary/aur/BThN",  "main": "belly/body/womb", "dubious": true },
{ "_id": "summary/aur/BTsO",  "main": "cut off/break off/gain unjustly", "dubious": true },
{ "_id": "summary/aur/BTsR",  "main": "cut off/make inaccessible", "dubious": true },
{ "_id": "summary/aur/BU", "_rev": "1-9e8b6ae198f45179946a22465b2d4dbb", "prefix": "(within)", "main": "(him/itself)", "dubious": true },
{ "_id": "summary/aur/BUA",   "main": "come in/come/go in/go", "dubious": true },
{ "_id": "summary/aur/BUK",   "main": "confound/confuse", "dubious": true },
{ "_id": "summary/aur/BUS",   "main": "tread down/trample", "dubious": true },
{ "_id": "summary/aur/BUSh",  "main": "be ashamed", "dubious": true },
{ "_id": "summary/aur/BUZ",   "main": "despise/disdain/contempt", "dubious": true },
{ "_id": "summary/aur/BY",    "main": "[particle of entreaty]", "dubious": true },
{ "_id": "summary/aur/BYT",   "main": "house", "dubious": true },
{ "_id": "summary/aur/BZ",    "main": "spoil/plunder", "dubious": true },
{ "_id": "summary/aur/BZE",   "main": "despise/disdain/contempt", "dubious": true },
{ "_id": "summary/aur/BZZ",   "main": "spoil/plunder", "dubious": true },
{ "_id": "summary/aur/DAB", "_rev": "1-8b242725ce62c6723badcd667440487e", "main": "become faint/languish", "dubious": true },
{ "_id": "summary/aur/DAE", "_rev": "1-7562ada9e7f89b6dd7f99273a8a4d29d", "main": "fly swiftly/dart", "dubious": true },
{ "_id": "summary/aur/DAG", "_rev": "1-c3f82fea5e6e1969cd9f71acb537599e", "main": "be anxious/concerned/afraid", "dubious": true },
{ "_id": "summary/aur/DBB", "_rev": "1-500389edd6ba3c2c8c136575dc28311e", "main": "move gently/glide/glide over", "dubious": true },
{ "_id": "summary/aur/DBE", "_rev": "1-42c8a7527c10e4397194b0d5a04c99fe", "main": "whispering/defamation/evil report", "dubious": true },
{ "_id": "summary/aur/DBL", "_rev": "1-87c07dd6455911eed8151c236272527b", "main": "make into lumps", "dubious": true },
{ "_id": "summary/aur/DBQ", "_rev": "2-5d6e758aeaf4d0f8a579074407496b8b", "main": "cling/cleave/join/keep close", "dubious": true },
{ "_id": "summary/aur/DBR", "_rev": "1-6f0d23b1a43a2c1da626b4bdc4b12c77", "main": "speak", "dubious": true },
{ "_id": "summary/aur/DBSh", "_rev": "1-f65e203a8bf3721bbbc984b75205498c", "main": "honey/red-brown", "dubious": true },
{ "_id": "summary/aur/DD", "_rev": "1-120a7d62e7d73dedebfbb36660664069", "main": "teat/nipple", "dubious": true },
{ "_id": "summary/aur/DDE", "_rev": "1-082fa63f29e98a7b3c72d3ddab3e6bba", "main": "lead slowly", "dubious": true },
{ "_id": "summary/aur/DGE", "_rev": "2-19966db28d6893d353800b4b229c286d", "main": "multiply/increase/fish", "dubious": true },
{ "_id": "summary/aur/DGL", "_rev": "1-40cc7758a78155f8446d03d5582ac50d", "main": "set up a banner/standard", "dubious": true },
{ "_id": "summary/aur/DGN", "_rev": "1-9eef1ba4c30f422149b8a3bf578209b8", "main": "heap/cereal/grain", "dubious": true },
{ "_id": "summary/aur/DGR", "_rev": "1-03fcaf12427a6a0e879f243f538a91ff", "main": "gather together as a brood", "dubious": true },
{ "_id": "summary/aur/DHE", "_rev": "1-a6083dedfd744dc256f93f43c2e5a845", "main": "push/thrust/cast", "dubious": true },
{ "_id": "summary/aur/DHP", "_rev": "1-730218f762a702818fbbb0719da148c2", "main": "hasten", "dubious": true },
{ "_id": "summary/aur/DKA", "_rev": "1-b3ef43a7c57853695b93a1dca1f1a081", "main": "crush/make humble", "dubious": true },
{ "_id": "summary/aur/DKE", "_rev": "1-9c615aec15fe77d750bd6e3e2e639660", "main": "crush", "dubious": true },
{ "_id": "summary/aur/DKK", "_rev": "1-602b0bd05a5b8529285198d57a02d346", "main": "crush/oppress", "dubious": true },
{ "_id": "summary/aur/DLE", "_rev": "1-d7615752a85f601d807e02a88f270f3c", "main": "draw up/draw out", "dubious": true },
{ "_id": "summary/aur/DLL", "_rev": "1-737a4377ca1ecc5ca15fc8ad6e50ff6f", "main": "hang low/languish/be poor", "dubious": true },
{ "_id": "summary/aur/DLP", "_rev": "1-52bcb5182a76634da7a6fb8a8a60a1f1", "main": "drop/drip", "dubious": true },
{ "_id": "summary/aur/DLQ", "_rev": "1-71ecf707d8c53aa10f8df0cdc12588bf", "main": "burn/inflame/hotly pursue", "dubious": true },
{ "_id": "summary/aur/DLT", "_rev": "1-479ec086f39fcf845ab24fee2df68a07", "main": "door", "dubious": true },
{ "_id": "summary/aur/DM", "_rev": "1-622eef81f141c4dc81da637ca8c26003", "main": "blood", "dubious": true },
{ "_id": "summary/aur/DME", "_rev": "2-f7a59bbaf4d456cc100cb5e2d9e20ebf", "main": "be like/resemble/pattern", "dubious": true },
{ "_id": "summary/aur/DMM", "_rev": "1-9c350a7f4bfa0a11943b61c91b8c9019", "main": "be silent/be still/become silent", "dubious": true },
{ "_id": "summary/aur/DMO", "_rev": "1-99dd61f2da985213750c928ec96d7692", "main": "weep, juice/wine/oil", "dubious": true },
{ "_id": "summary/aur/DMY", "_rev": "1-b75fbbce4a17a52bc6ead4002a36b052", "main": "cease/pause/quiet/rest", "dubious": true },
{ "_id": "summary/aur/DOK", "_rev": "1-9dacdd9034f94ecc00a0a4d7d6b5aa05", "main": "be extinguished/go out/dry up", "dubious": true },
{ "_id": "summary/aur/DOT", "_rev": "2-2d42eb8d8d1235389b886534f889943e", "main": "know" },
{ "_id": "summary/aur/DPQ", "_rev": "1-de4e4f9fbd46ab74059373649f7c74d1", "main": "beat/knock/drive cruelly (a beast)", "dubious": true },
{ "_id": "summary/aur/DQQ", "_rev": "1-d1ccfe03a86a107dd97be2d5e2c32a33", "main": "crush/pulverize/thresh/be fine", "dubious": true },
{ "_id": "summary/aur/DQR", "_rev": "1-841220845d4185cbcd4ae27aeaa9f0ab", "main": "pierce/run through", "dubious": true },
{ "_id": "summary/aur/DRK", "_rev": "1-39a75fbca2a498effd4c1115e8329ce7", "main": "tread/march/road/way/manner", "dubious": true },
{ "_id": "summary/aur/DRSh", "_rev": "1-9ec84d810e986643251f16846ae408e6", "main": "seek/inquire/consult/study", "dubious": true },
{ "_id": "summary/aur/DShA", "_rev": "2-e23170f3d8b9c02a557bf7521a78d6db", "main": "sprout/shoot/grow green", "dubious": true },
{ "_id": "summary/aur/DShN", "_rev": "1-0cca8ae6e5d16dfb156276e3909b8807", "main": "be fat/fatten", "dubious": true },
{ "_id": "summary/aur/DUD", "_rev": "2-de5ea577bbd05cda7430969989866f13", "main": "love/beloved/caress/uncle/aunt", "dubious": true },
{ "_id": "summary/aur/DUE", "_rev": "1-0ad9d546e2799593e4ee5180793804cf", "main": "be ill/faint/unwell", "dubious": true },
{ "_id": "summary/aur/DUH", "_rev": "1-417bc1fa47cac5d865d1d6c92a1d905c", "main": "rinse/wash/cleanse", "dubious": true },
{ "_id": "summary/aur/DUM", "_rev": "1-2a3242b21641600b144dc769675f2c9d", "main": "whisper", "dubious": true },
{ "_id": "summary/aur/DUR", "_rev": "1-294864c12ac6fc3ff49627fe9e5c6647", "main": "period/generation/circle", "dubious": true },
{ "_id": "summary/aur/DUSh", "_rev": "1-75fa7ab85b3c0599ba58869818879386", "main": "tread/thresh/trample", "dubious": true },
{ "_id": "summary/aur/DY", "_rev": "1-2f5753be86441f7bab2a454ff409df21", "main": "sufficiency/enough", "dubious": true },
{ "_id": "summary/aur/DYN", "_rev": "1-9fc234ff080e437d15bd8e95671f7c2f", "main": "judge", "dubious": true },
{ "_id": "summary/aur/EBL", "_rev": "1-beb808ce3a401635d9d4261691e80805", "main": "vapour/vanity/emptiness", "dubious": true },
{ "_id": "summary/aur/EBR", "_rev": "1-49881a1a1fcf5f5074b3db24ea8f9912", "main": "divide", "dubious": true },
{ "_id": "summary/aur/EDD", "_rev": "1-d8a755710e7644ee2fc4683688289198", "main": "shout/cheer", "dubious": true },
{ "_id": "summary/aur/EDP", "_rev": "1-eb0fd6d312f339c00737319e5d8b28c3", "main": "thrust/push/drive", "dubious": true },
{ "_id": "summary/aur/EDR", "_rev": "1-c04ff21886c2abd3c2390a64d3cd5e99", "main": "swell/honor/adorn", "dubious": true },
{ "_id": "summary/aur/EGE", "_rev": "1-4e4cf7dccc235da490d27838f7bc1637", "main": "moan/growl/utter/speak", "dubious": true },
{ "_id": "summary/aur/EGG", "_rev": "1-9fbd366e27892a5a2e089c9595a3ca0f", "main": "murmur/whisper", "dubious": true },
{ "_id": "summary/aur/ELK", "_rev": "1-7b41c4dd7d45a177773f510cf28367d4", "main": "go/come/walk" },
{ "_id": "summary/aur/ELL", "_rev": "1-2304cec4473e8afcf0473878928f48a6", "main": "shine/boast/praise", "dubious": true },
{ "_id": "summary/aur/ELM", "_rev": "1-0700a3eaa002f81d118f1d653a30cf32", "main": "smite/hammer/strike down", "dubious": true },
{ "_id": "summary/aur/EM", "_rev": "1-c01de67b0b36cad43756897ad7cbbb72", "main": "they/them" },
{ "_id": "summary/aur/EME", "_rev": "1-168548e8f18a3ee3986c09d9692eea19", "main": "murmur/growl/roar/be boisterous", "dubious": true },
{ "_id": "summary/aur/EMM", "_rev": "1-620e65fb5a3e7c66f7c4656b025a70fa", "main": "make noise/move noisily/confuse/discomfit", "dubious": true },
{ "_id": "summary/aur/EMThYR", "_rev": "1-007d863e2737782c712884e1f0012e65", "prefix": "(he/it caused to)", "main": "rain", "dubious": true },
{ "_id": "summary/aur/ENE", "_rev": "1-c282e3b2b0eadf905c9b5052fd719eec", "main": "lo! behold!" },
{ "_id": "summary/aur/EPK", "_rev": "1-e2ba294a9af97fef81606772655d117b", "main": "turn/overturn", "dubious": true },
{ "_id": "summary/aur/ERE", "_rev": "1-c58d983ebb1bb234c35ca920f3f69708", "main": "conceive/become pregnant", "dubious": true },
{ "_id": "summary/aur/ERG", "_rev": "1-06afed4d5f223b28a002cb398b68e026", "main": "kill/slay", "dubious": true },
{ "_id": "summary/aur/ERR", "_rev": "1-b651fad8f643ecea8a62f8c1f121e832", "main": "mountain/hill/hill country", "dubious": true },
{ "_id": "summary/aur/ERS", "_rev": "1-93512a8151591e291e7276a7449b2fc2", "main": "throw down/break/tear down", "dubious": true },
{ "_id": "summary/aur/ETL", "_rev": "1-e84b97bc229ba116d1a727a36674a726", "main": "deceive/mock", "dubious": true },
{ "_id": "summary/aur/EUA", "_rev": "1-ececd575d75dc44d592cb682b10a781e", "main": "she/it" },
{ "_id": "summary/aur/EUE", "_rev": "1-f4d5bf9f697ba1e053cdd11225c7c4e1", "main": "become", "dubious": true },
{ "_id": "summary/aur/EUM", "_rev": "1-6bdf85b3c3ffad466773fd106c07b321", "main": "murmur/roar/discomfit", "dubious": true },
{ "_id": "summary/aur/EUN", "_rev": "1-e0d56d3cdbcdd2519815ae6f9ba5fb49", "main": "be sufficient/be easy", "dubious": true },
{ "_id": "summary/aur/EUR", "_rev": "1-9fd6c2763f905a22382805aa297c55fd", "main": "mountain", "dubious": true },
{ "_id": "summary/aur/EYE", "_rev": "1-ac9ce7d7f9ed96eb146cc63e7ff32fe5", "main": "become" },
{ "_id": "summary/aur/EZE", "_rev": "1-f57f44a5e9c0e305af3fd6ad6fddc1a1", "main": "dream/rave", "dubious": true },
{ "_id": "summary/aur/GAE", "_rev": "1-a3c24cc478295eacbc6a4d5d51465c60", "main": "rise up/be proud/be exalted", "dubious": true },
{ "_id": "summary/aur/GAL", "_rev": "1-6e3e5ba075f67c3dbdb84599adfe046a", "main": "redeem/act as kinsman", "dubious": true },
{ "_id": "summary/aur/GBB", "_rev": "1-4fc351e8facb810a83b39e8907230658", "main": "convex/curved/gibbous/mound", "dubious": true },
{ "_id": "summary/aur/GBE", "_rev": "1-427166b49ae3d035263f8f7400bae1dd", "main": "be high/be tall/be exalted", "dubious": true },
{ "_id": "summary/aur/GBH", "_rev": "1-9dc1bb94c31f20f64c543cab87749719", "main": "prominent forehead", "dubious": true },
{ "_id": "summary/aur/GBL", "_rev": "1-7ac225359dfc9b4b899a8fa824f563a6", "main": "border/bound/twist/cord", "dubious": true },
{ "_id": "summary/aur/GBO", "_rev": "1-7542d488d28d9674c9610c1b961978bd", "main": "swell/hill/convex", "dubious": true },
{ "_id": "summary/aur/GBR", "_rev": "1-b039f287193673fe485f43b904273dd0", "main": "strong/mighty", "dubious": true },
{ "_id": "summary/aur/GBSh", "_rev": "1-e5495f40498efd44880991ab2f67901d", "main": "crystal/coral/hail", "dubious": true },
{ "_id": "summary/aur/GDD", "_rev": "1-7c6c5bb9a6f62b490f8d50b2db0819de", "main": "penetrate/cut/gather in a troop", "dubious": true },
{ "_id": "summary/aur/GDL", "_rev": "2-3f443552691ff1fe1940f6f4936b2c81", "main": "be great/be magnified/grow" },
{ "_id": "summary/aur/GDO", "_rev": "1-5c431b4e4d90a8bee2c69a4c18de27bc", "main": "hew/hew down/mutilate", "dubious": true },
{ "_id": "summary/aur/GDP", "_rev": "1-a4cf27658bf15ca9c27de9de445d90da", "main": "revile/blaspheme/taunt", "dubious": true },
{ "_id": "summary/aur/GDR", "_rev": "1-6116ca9872de14e3a9ad2b0b1ee71d25", "main": "wall up/wall off", "dubious": true },
{ "_id": "summary/aur/GDSh", "_rev": "1-3ef30ca6b102b30f863aab08cd9ec163", "main": "heap/stack/tomb", "dubious": true },
{ "_id": "summary/aur/GEE", "_rev": "1-5929ab86a2cd96725186abff7aa622b9", "main": "heal/cure/free/depart", "dubious": true },
{ "_id": "summary/aur/GER", "_rev": "1-13312c6c411072c669ac033e134a401c", "main": "bend/crouch", "dubious": true },
{ "_id": "summary/aur/GG", "_rev": "1-3a7a3ccc782429638f7e32b95e7fcbb8", "main": "top/roof", "dubious": true },
{ "_id": "summary/aur/GHL", "_rev": "1-70a05ff854596dabd6666be2df2406b8", "main": "glow/coal/burn/ember/shine", "dubious": true },
{ "_id": "summary/aur/GHN", "_rev": "1-95c02ccbb54fe2c9edf7fad29e09b557", "main": "belly (of a reptile, twisting)", "dubious": true },
{ "_id": "summary/aur/GLB", "_rev": "1-ee43b07644bc67ce93358f80b7a0bcfd", "main": "shear/shave/barber", "dubious": true },
{ "_id": "summary/aur/GLE", "_rev": "1-798a45a4471af70ad1690b33148bc63d", "main": "uncover/remove/reveal/disclose/go into exile", "dubious": true },
{ "_id": "summary/aur/GLH", "_rev": "1-53140e973d259632bcb0b7164d243ba7", "main": "shave/be bald", "dubious": true },
{ "_id": "summary/aur/GLL", "_rev": "1-016c8c11d6f543922fcbd8a053879020", "main": "roll/roll away/billow/whirl/circuit/boundary", "dubious": true },
{ "_id": "summary/aur/GLM", "_rev": "1-bbe6adcf627b5c78e42548ff8816412e", "main": "wrap/fold", "dubious": true },
{ "_id": "summary/aur/GLO", "_rev": "1-f9f67c7f39ba4bd8521a0d088d3a8524", "main": "expose/lay bare/disclose", "dubious": true },
{ "_id": "summary/aur/GM", "_rev": "1-cf05f348d6cb7ef85cbc5730c1837b73", "main": "yea/also/even" },
{ "_id": "summary/aur/GMA", "_rev": "1-ff631cd91fff320bfb03dd67e46213a0", "main": "hollow/make hollow", "dubious": true },
{ "_id": "summary/aur/GML", "_rev": "1-5869f1395d1d557714a3164377de0b54", "main": "repay/reward/recompense/wean/ripen", "dubious": true },
{ "_id": "summary/aur/GMM", "_rev": "1-d0daf8a19202d4dcb56687b199e854fd", "main": "become abundant/moreover", "dubious": true },
{ "_id": "summary/aur/GMR", "_rev": "1-216ebc5cd6587d4dd5cc9a324ee6bd56", "main": "come to an end/complete", "dubious": true },
{ "_id": "summary/aur/GN", "_rev": "1-152de029be3ca007aedf9eb23cc109e5", "main": "enclosure/garden", "dubious": true },
{ "_id": "summary/aur/GNB", "_rev": "1-ce5564396d4db5c83ffd597a128dfef1", "main": "steal/steal away/thieve", "dubious": true },
{ "_id": "summary/aur/GNN", "_rev": "1-99b7edfde048f1d533b337ba8e79ea84", "main": "enclose/surround/defend", "dubious": true },
{ "_id": "summary/aur/GNZ", "_rev": "1-ebc8102497a2b98549ab9d6e94e0d75c", "main": "hide/stash (of treasure)", "dubious": true },
{ "_id": "summary/aur/GOL", "_rev": "1-9aea6940934c78716dc119dc1baadb09", "main": "abhor/loathe/cast away", "dubious": true },
{ "_id": "summary/aur/GOR", "_rev": "1-f03f4611d968957e6f4f764ac939978c", "main": "rebuke", "dubious": true },
{ "_id": "summary/aur/GOSh", "_rev": "1-a4509a72352179350d7d24888a97a69a", "main": "shake/quake/toys/reel", "dubious": true },
{ "_id": "summary/aur/GPN", "_rev": "1-edc546dda91e7d95ffaa2fc509cbcac5", "main": "vine", "dubious": true },
{ "_id": "summary/aur/GPR", "_rev": "1-ab8cbbd6c26b9f1860d7b51ca2913e74", "main": "pitch/sulfur/brimstone", "dubious": true },
{ "_id": "summary/aur/GRE", "_rev": "1-e17cdebb9cbad25260e87880cfa2dc2f", "main": "stir up strife/neck/throat/chew # dedup with GUR", "dubious": true },
{ "_id": "summary/aur/GRL", "_rev": "1-fb0f70cb79ebaef58c19baed5d022bcb", "main": "cast lot/divination/apportion by lot", "dubious": true },
{ "_id": "summary/aur/GRM", "_rev": "1-3f09aadc896002a560b7175139992250", "main": "bone", "dubious": true },
{ "_id": "summary/aur/GRN", "_rev": "1-3103e3027e1aca2444aa13b0f4d4cbdd", "main": "storing/processing crops", "dubious": true },
{ "_id": "summary/aur/GRO", "_rev": "1-95901076ce6ba454124bc771a45c46d1", "main": "diminish/withdraw/abate", "dubious": true },
{ "_id": "summary/aur/GRP", "_rev": "1-245c063da6f001845f1b52c45267370c", "main": "scoop/sweep", "dubious": true },
{ "_id": "summary/aur/GRR", "_rev": "1-a542c5a01887b3af393c3beabd063720", "main": "drag/drag away", "dubious": true },
{ "_id": "summary/aur/GRSh", "_rev": "1-a7d421b0737273fcbf7d11e3884325da", "main": "grind/crush/destroy/drive out", "dubious": true },
{ "_id": "summary/aur/GRZ", "_rev": "1-4b8fd75c332bf5efdfd03cbf796be5e8", "main": "cut/cut off", "dubious": true },
{ "_id": "summary/aur/GShM", "_rev": "1-632dd4c8383c59f5873e2a7e34b5ade9", "main": "rain/shower", "dubious": true },
{ "_id": "summary/aur/GUB", "_rev": "1-94436e115db79512866a1aabf4926475", "main": "dig/ditch/trench", "dubious": true },
{ "_id": "summary/aur/GUD", "_rev": "1-10fc4a3d704732765d38e1784268b9a6", "main": "invade/attack/troop", "dubious": true },
{ "_id": "summary/aur/GUE", "_rev": "1-830571c19add1e1bfcb23701274c6379", "main": "nation/people/body", "dubious": true },
{ "_id": "summary/aur/GUO", "_rev": "1-00c1a31badc086a0449de9b4c2fb1ce0", "main": "expire/perish/die", "dubious": true },
{ "_id": "summary/aur/GUR", "_rev": "1-c181fa67845f1b0dae96c2b5221dd2fc", "main": "visit/guest/quarrel/stir up strife", "dubious": true },
{ "_id": "summary/aur/GUZ", "_rev": "1-55b9f2bdae46d699368240ac3312dc73", "main": "pass over/pass away", "dubious": true },
{ "_id": "summary/aur/GYA", "_rev": "1-8228c823f23a95faddb7d5f748d186af", "main": "valley", "dubious": true },
{ "_id": "summary/aur/GYH", "_rev": "1-ef1908658a43a7855ca39f16b2b501cc", "main": "burst forth", "dubious": true },
{ "_id": "summary/aur/GYHUN", "_rev": "1-7725dd231414a5c35e21e857e78ff88c", "main": "GYHON", "dubious": true },
{ "_id": "summary/aur/GYL", "_rev": "1-dd637349fb8cda4ee58f2f40a8b583c7", "main": "rejoice", "dubious": true },
{ "_id": "summary/aur/GYR", "_rev": "1-54f414f8c0719abcb73d5661e7bca9d9", "main": "sinew", "dubious": true },
{ "_id": "summary/aur/GZL", "_rev": "1-01e21d37b8c91ebfb0447793cb3d146a", "main": "tear away/seize/rob", "dubious": true },
{ "_id": "summary/aur/GZM", "_rev": "1-e6f28f3188ed512ffde7d94c8cfcdaa4", "main": "cut off/devastate", "dubious": true },
{ "_id": "summary/aur/GZO", "_rev": "1-6c919afd7f632a300fbf77509a475740", "main": "stock/stem (branching in two?)", "dubious": true },
{ "_id": "summary/aur/GZR", "_rev": "1-8327826fe012bb889ff8dbe20c09f0e9", "main": "cut/divide/halve/apportion", "dubious": true },
{ "_id": "summary/aur/GZZ", "_rev": "1-3612fb204089515dc6de35a7afcacf14", "main": "cut/shear/mow", "dubious": true },
{ "_id": "summary/aur/HBA", "_rev": "1-7ca142d61602aea228808bbe78a665b6", "main": "withdraw/hide", "dubious": true },
{ "_id": "summary/aur/HBE", "_rev": "1-7ca142d61602aea228808bbe78a665b6", "main": "withdraw/hide", "dubious": true },
{ "_id": "summary/aur/HBL", "_rev": "1-c426cd19caccd82dd89a99b9819b78e3", "main": "bind/pledge/band", "dubious": true },
{ "_id": "summary/aur/HBQ", "_rev": "1-6b614dfc8a180c54719d50766d55867d", "main": "clasp/fold (one's hands)", "dubious": true },
{ "_id": "summary/aur/HBR", "_rev": "1-302fb56ed68f64383b29dd37c2eac8b6", "main": "unite/associate/accompany", "dubious": true },
{ "_id": "summary/aur/HBSh", "_rev": "1-69ca7e8e1b985b41cf448ea1fe246f04", "main": "bind/restrain/repair (a wound)", "dubious": true },
{ "_id": "summary/aur/HDD", "_rev": "1-beb91fa78641d65c751c7ba4b3d24ce9", "main": "be sharp/keen", "dubious": true },
{ "_id": "summary/aur/HDL", "_rev": "1-60b69ac508c1cb6e40066c97ca6500af", "main": "cease", "dubious": true },
{ "_id": "summary/aur/HDQL", "_rev": "1-d41df7c7f0c7191b23483380475bfe51", "main": "HDQL", "dubious": true },
{ "_id": "summary/aur/HDR", "_rev": "1-48e583c74822042c82dd4738a69341eb", "main": "enclose/chamber/room", "dubious": true },
{ "_id": "summary/aur/HDSh", "_rev": "1-7283e3f05bac02e64c31d90e8f461e80", "main": "renew/repair/new moon", "dubious": true },
{ "_id": "summary/aur/HGG", "_rev": "1-71f35bf6450a4fb57bbdb30c0ba32161", "main": "make pilgrimage/keep festival", "dubious": true },
{ "_id": "summary/aur/HGR", "_rev": "1-42c89d60f461e6fcfc2e059dc81a765d", "main": "gird/gird oneself", "dubious": true },
{ "_id": "summary/aur/HK", "_rev": "1-37fcb557b0a2588013378b5e120e0fd1", "main": "(inner part of) mouth", "dubious": true },
{ "_id": "summary/aur/HKM", "_rev": "3-8ea7a92537b06c14875b2956a1a08d4c", "main": "wise/skillful" },
{ "_id": "summary/aur/HLA", "_rev": "1-abb53c135e6cf36d1d82622fb1444dc8", "main": "be sick/diseased", "dubious": true },
{ "_id": "summary/aur/HLB", "_rev": "1-f458e8290783199c9e2085ce85b83151", "main": "milk/fat", "dubious": true },
{ "_id": "summary/aur/HLD", "_rev": "1-0f495ab7cdb11401eea5f8351f390251", "main": "duration/continue", "dubious": true },
{ "_id": "summary/aur/HLE", "_rev": "1-a2781a25613903e614b66a64cf75c953", "main": "be sick/weak/suffer/grieve", "dubious": true },
{ "_id": "summary/aur/HLL", "_rev": "1-985cc9fa0b4e503ba928cf4ac6c7050d", "main": "pierce/defile/profane", "dubious": true },
{ "_id": "summary/aur/HLM", "_rev": "1-d9b10f3b53f34c1798710b31ddec084d", "main": "dream", "dubious": true },
{ "_id": "summary/aur/HLP", "_rev": "1-e9de936913f0ab743c1d34a94934edb2", "main": "pass/pass through", "dubious": true },
{ "_id": "summary/aur/HLQ", "_rev": "1-5910ccba813900f79c8d14932093f9b6", "main": "divide/share/portion/smooth", "dubious": true },
{ "_id": "summary/aur/HLSh", "_rev": "1-03c7162f18f9a60f3d4e132c92a4da36", "main": "be weak/prostrate", "dubious": true },
{ "_id": "summary/aur/HLTs", "_rev": "1-dc9896537f2716b31dfcc399de5a9833", "main": "equip/brace/vigour", "dubious": true },
{ "_id": "summary/aur/HMD", "_rev": "3-eeb8d2209bbe90211a324344e1744fa3", "main": "desire/take pleasure", "dubious": true },
{ "_id": "summary/aur/HML", "_rev": "1-c06cfab21fe3e4dd742fa02eb7fa4b89", "main": "pity/spare/compassion", "dubious": true },
{ "_id": "summary/aur/HMM", "_rev": "1-4c0f89d05219359755229abfb2142cbd", "main": "be warm/heated", "dubious": true },
{ "_id": "summary/aur/HMR", "_rev": "1-fb44788e10c91898e5289fc9dfc9b0ce", "main": "ferment/foam/cement", "dubious": true },
{ "_id": "summary/aur/HMS", "_rev": "1-5c0a4142b94fa114ba84a3f7d937210b", "main": "treat violently/wrongly", "dubious": true },
{ "_id": "summary/aur/HMSh", "_rev": "1-933ea53920ebc0e636f2e4c3822c85ad", "main": "five", "dubious": true },
{ "_id": "summary/aur/HMTs", "_rev": "1-38557e8251b768c1005f5a26aa6cc790", "main": "be leavened/sour", "dubious": true },
{ "_id": "summary/aur/HMYShY", "_rev": "1-67e8f8b7e2885f2d7a85d9d249cae240", "main": "fifth" },
{ "_id": "summary/aur/HNE", "_rev": "1-0a9e478dd0ea3f9b1dcc9dbc049be850", "main": "encamp/decline/bend down", "dubious": true },
{ "_id": "summary/aur/HNK", "_rev": "1-f2ec1db7fe5c7eddd5bded05f504abf6", "main": "train/dedicate/consecrate", "dubious": true },
{ "_id": "summary/aur/HNN", "_rev": "1-fb895e782f11e566aefb5a81e58f62c0", "main": "be gracious/show favor", "dubious": true },
{ "_id": "summary/aur/HNP", "_rev": "1-3eaaeaaf8d909166b094f89dc35f6dd2", "main": "be polluted/profane", "dubious": true },
{ "_id": "summary/aur/HPP", "_rev": "1-837289453c9f2f38a57f6c121b5c5311", "main": "surround/shore/canopy", "dubious": true },
{ "_id": "summary/aur/HPR", "_rev": "1-8e88a4d8aea8f616aa73b715ca3db505", "main": "dig/search/seek/be ashamed", "dubious": true },
{ "_id": "summary/aur/HPSh", "_rev": "1-201e2bc20cf86af1382a680d0810c6c8", "main": "dig/search/seek/be free", "dubious": true },
{ "_id": "summary/aur/HPTs", "_rev": "1-1778586c4203ad769c176df7a45f6640", "main": "desire/take pleasure", "dubious": true },
{ "_id": "summary/aur/HPZ", "_rev": "1-d373b879dd72439d35034c5dcd43101e", "main": "be alarmed/hurry", "dubious": true },
{ "_id": "summary/aur/HQE", "_rev": "1-17f4dcdd32e084b6660e36a77e5a73e3", "main": "cut in/carve", "dubious": true },
{ "_id": "summary/aur/HQQ", "_rev": "1-16a8f2919184f5ec6b2bf7c96417749f", "main": "cut in/inscribe/decree", "dubious": true },
{ "_id": "summary/aur/HQR", "_rev": "1-5ae8eb399cfb275c0ca974c7889c9883", "main": "search/explore/examine", "dubious": true },
{ "_id": "summary/aur/HRB", "_rev": "1-0389e2a92876c19b8f01df447229d865", "main": "be dry/desolate/attack/sword", "dubious": true },
{ "_id": "summary/aur/HRD", "_rev": "1-56efea8161fbdb2bfa441a18566f7101", "main": "be terrified/tremble", "dubious": true },
{ "_id": "summary/aur/HRE", "_rev": "1-1eb131f3c787bdc759dfc4186994ef60", "main": "burn/kindle/anger", "dubious": true },
{ "_id": "summary/aur/HRM", "_rev": "1-19202130b704559b64e2ccbe7e904077", "main": "ban/devote/exterminate", "dubious": true },
{ "_id": "summary/aur/HRP", "_rev": "1-dc2b35cefd72a57ee1952fc5ffa25374", "main": "reproach/taunt/autumn/harvest", "dubious": true },
{ "_id": "summary/aur/HRQ", "_rev": "1-5ca17decccdcd142bcc87dc76df9678e", "main": "be hot/scorched/burn", "dubious": true },
{ "_id": "summary/aur/HRSh", "_rev": "1-7ead96d0bbbcaef6e13ed3b261f252bd", "main": "engrave/plough/devise/artifice/speechless/deaf/magic", "dubious": true },
{ "_id": "summary/aur/HRTs", "_rev": "1-7599a34042a69f89bb876f175f2c0f9e", "main": "sharpen/decide firmly/be diligent", "dubious": true },
{ "_id": "summary/aur/HSD", "_rev": "1-a2cefff6e2c640c9f7e257f1eea44c34", "main": "be kind/good/merciful", "dubious": true },
{ "_id": "summary/aur/HSE", "_rev": "1-4a0f82006a015bdafee5829f7d584592", "main": "seek refuge/shelter", "dubious": true },
{ "_id": "summary/aur/HShB", "_rev": "1-ebb6bcbe07ca52ef3858b23f567ba3d5", "main": "reckon/regard/devise", "dubious": true },
{ "_id": "summary/aur/HShK", "_rev": "3-c899bb1f9e4f5117ed143e3a661b739c", "main": "be dark/obscure/withold/refrain", "dubious": true },
{ "_id": "summary/aur/HShQ", "_rev": "1-b793659a01773f78949070617d99fcf1", "main": "be attached to/desire/love", "dubious": true },
{ "_id": "summary/aur/HSN", "_rev": "1-c5c0e0f02bad16a75210d77d2fbe6f62", "main": "wealth/treasure/might", "dubious": true },
{ "_id": "summary/aur/HSR", "_rev": "1-23f33c668114e7862104cec381ef9c0e", "main": "lack/want/decrease/diminish", "dubious": true },
{ "_id": "summary/aur/HThA", "_rev": "1-0746e69e4987a55795662c22659995c1", "main": "go wrong/sin/miss", "dubious": true },
{ "_id": "summary/aur/HThB", "_rev": "1-7d6a83edd1ee9e3220055ad478a224a4", "main": "collect firewood", "dubious": true },
{ "_id": "summary/aur/HTM", "_rev": "1-0dec8245404aa1d363fb62a595b8e815", "main": "seal/seal up", "dubious": true },
{ "_id": "summary/aur/HTN", "_rev": "1-e87b386f397472a2879d2268eb8a86b6", "main": "bridegroom/son-in-law", "dubious": true },
{ "_id": "summary/aur/HTs", "_rev": "1-7f47a5fd0ad69ca09086cca13ece6167", "main": "arrow", "dubious": true },
{ "_id": "summary/aur/HTsB", "_rev": "1-12dc4cb5687a70f38a0f247764843784", "main": "hew/cut/cleave", "dubious": true },
{ "_id": "summary/aur/HTsE", "_rev": "1-f5d82b1704d5d3d62b525dc3eb2285f5", "main": "divide/halve/middle", "dubious": true },
{ "_id": "summary/aur/HTsN", "_rev": "1-c2e51e17fd179bb620d91a85cd827359", "main": "bosom (of a garment)", "dubious": true },
{ "_id": "summary/aur/HTsR", "_rev": "1-e5940bc435f482ee4ad5c89f2e7a1315", "main": "enclosure/court/settlement/village/green plants", "dubious": true },
{ "_id": "summary/aur/HTT", "_rev": "1-51d941dca4373d33837e2cb6cda6f006", "main": "be shattered/dismayed/terrified", "dubious": true },
{ "_id": "summary/aur/HUD", "_rev": "1-befee7a488569d1f5ea342800f074b19", "main": "riddle/preplex/enigma", "dubious": true },
{ "_id": "summary/aur/HUE", "_rev": "1-b4e02c08365d9b43cdeee8a933f9f135", "main": "collect/gather/village", "dubious": true },
{ "_id": "summary/aur/HUH", "_rev": "1-16a99d3f738e699ad8871022b740e73b", "main": "brier/bramble", "dubious": true },
{ "_id": "summary/aur/HUL", "_rev": "1-0e591fa5405a58e165a3d1de7072fba3", "main": "whirl/writhe/dance", "dubious": true },
{ "_id": "summary/aur/HUQ", "_rev": "1-bd5283f15a8e8e431ea5c3471c22941a", "main": "bosom", "dubious": true },
{ "_id": "summary/aur/HUR", "_rev": "1-cf588e29079a027480f7e71c95792b13", "main": "be white/pale", "dubious": true },
{ "_id": "summary/aur/HUS", "_rev": "1-c06cfab21fe3e4dd742fa02eb7fa4b89", "main": "pity/spare/compassion", "dubious": true },
{ "_id": "summary/aur/HUSh", "_rev": "1-390dc213a3120d9d0cb48f773cac480e", "main": "make haste", "dubious": true },
{ "_id": "summary/aur/HUTs", "_rev": "1-d752aa232d53dfc069780d386b1af315", "main": "outside", "dubious": true },
{ "_id": "summary/aur/HUYLE", "_rev": "1-e239606f3f082e1654bc4a527b7ba75c", "main": "HUYLE", "dubious": true },
{ "_id": "summary/aur/HY", "_rev": "1-5a9e7a8dcdda8b369edb4b5c600d3c80", "main": "being", "dubious": true },
{ "_id": "summary/aur/HYE", "_rev": "1-980f4735fab732760302013f794bb94d", "main": "live/be lively/being/creature/community", "dubious": true },
{ "_id": "summary/aur/HYL", "_rev": "1-b43653245d9d9fdb82681327c82a1bc6", "main": "be strong/efficacious/firm", "dubious": true },
{ "_id": "summary/aur/HZE", "_rev": "1-b9e231b189f5fa1b111b6d79f954bdf6", "main": "seer/behold/vision (transcendent)", "dubious": true },
{ "_id": "summary/aur/HZQ", "_rev": "1-b40ba7374399f169ed91c669f7ff8360", "main": "secure firmly/take hold", "dubious": true },
{ "_id": "summary/aur/KAB",   "main": "be in pain", "dubious": true },
{ "_id": "summary/aur/KBD",   "main": "be heavy/weighty/burdensome/honored", "dubious": true },
{ "_id": "summary/aur/KBE",   "main": "be quenched/extinguished", "dubious": true },
{ "_id": "summary/aur/KBR",   "main": "be great/mighty/many/much", "dubious": true },
{ "_id": "summary/aur/KBS",   "main": "wash/tread", "dubious": true },
{ "_id": "summary/aur/KE",    "main": "thus/here", "dubious": true },
{ "_id": "summary/aur/KEE",   "main": "be dim/dull/faint", "dubious": true },
{ "_id": "summary/aur/KHD",   "main": "hide/efface", "dubious": true },
{ "_id": "summary/aur/KHH",   "main": "be strong/efficacious", "dubious": true },
{ "_id": "summary/aur/KHSh",  "main": "be lean/disappointing/deceive/fail", "dubious": true },
{ "_id": "summary/aur/KKR",   "main": "round (e.g. of a loaf, district, or weight)", "dubious": true },
{ "_id": "summary/aur/KLA",   "main": "withold/restrain/confine", "dubious": true },
{ "_id": "summary/aur/KLB",   "main": "dog(?)", "dubious": true },
{ "_id": "summary/aur/KLE",   "main": "be complete/accomplished/spent", "dubious": true },
{ "_id": "summary/aur/KLL",   "main": "complete/perfect", "dubious": true },
{ "_id": "summary/aur/KLM",   "main": "be humiliated/ashamed", "dubious": true },
{ "_id": "summary/aur/KLY",   "main": "article/implement/vessel", "dubious": true },
{ "_id": "summary/aur/KM", "_rev": "1-62467cb0ab422c8917bff9005911a54b", "main": "you all" },
{ "_id": "summary/aur/KMR",   "main": "be warm/tender/prostrate", "dubious": true },
{ "_id": "summary/aur/KNE",   "main": "give title/epithet", "dubious": true },
{ "_id": "summary/aur/KNO",   "main": "be humble/subdued", "dubious": true },
{ "_id": "summary/aur/KNR",   "main": "lyre?", "dubious": true },
{ "_id": "summary/aur/KNS",   "main": "sweep/gather/collect/bundle", "dubious": true },
{ "_id": "summary/aur/KOS",   "main": "be vexed/angry", "dubious": true },
{ "_id": "summary/aur/KP",    "main": "palm", "dubious": true },
{ "_id": "summary/aur/KPL",   "main": "double/fold", "dubious": true },
{ "_id": "summary/aur/KPP",   "main": "bend/bow", "dubious": true },
{ "_id": "summary/aur/KPR",   "main": "pacify/propiciate/ransom", "dubious": true },
{ "_id": "summary/aur/KR",    "main": "ram(?)", "dubious": true },
{ "_id": "summary/aur/KRE",   "main": "dig", "dubious": true },
{ "_id": "summary/aur/KRM",   "main": "orchard/garden", "dubious": true },
{ "_id": "summary/aur/KRML",  "main": "orchard/garden", "dubious": true },
{ "_id": "summary/aur/KRO",   "main": "crouch", "dubious": true },
{ "_id": "summary/aur/KRT",   "main": "cut off/cut down", "dubious": true },
{ "_id": "summary/aur/KSA",   "main": "seat of honor/throne", "dubious": true },
{ "_id": "summary/aur/KSE",   "main": "cover/conceal/spread over", "dubious": true },
{ "_id": "summary/aur/KShL",  "main": "stumble/stagger/totter", "dubious": true },
{ "_id": "summary/aur/KShP",  "main": "sorcery", "dubious": true },
{ "_id": "summary/aur/KShR",  "main": "succeed/prosper", "dubious": true },
{ "_id": "summary/aur/KSL",   "main": "be stupid/foolish/confident", "dubious": true },
{ "_id": "summary/aur/KSP",   "main": "desire/money/silver(?)", "dubious": true },
{ "_id": "summary/aur/KSS",   "main": "compute/valuate/tax", "dubious": true },
{ "_id": "summary/aur/KTB",   "main": "write", "dubious": true },
{ "_id": "summary/aur/KTN",   "main": "tunic", "dubious": true },
{ "_id": "summary/aur/KTP",   "main": "shoulder/side", "dubious": true },
{ "_id": "summary/aur/KTR",   "main": "surround/crown", "dubious": true },
{ "_id": "summary/aur/KTT",   "main": "beat/crush/hammer", "dubious": true },
{ "_id": "summary/aur/KUKB", "_rev": "1-53554409c0a56e3dad9b4c87053cdc95", "main": "star" },
{ "_id": "summary/aur/KUL",   "main": "contain/support/sustain", "dubious": true },
{ "_id": "summary/aur/KUN",   "main": "be secure/established/enduring", "dubious": true },
{ "_id": "summary/aur/KUSh", "_rev": "1-f1acc78fe6db54eb976b0938659cac42", "main": "KUSh", "dubious": true },
{ "_id": "summary/aur/KY", "_rev": "1-c7af3ddda2e00f856e60507c13fc5c1f", "main": "for/that/when/if" },
{ "_id": "summary/aur/KZB",   "main": "lie/deceive", "dubious": true },
{ "_id": "summary/aur/LA", "_rev": "1-82250c4a4e2e7afd779ebff4be266b1c", "main": "no/not" },
{ "_id": "summary/aur/LAE",   "main": "be weary/impatient", "dubious": true },
{ "_id": "summary/aur/LAK",   "main": "business/send/work", "dubious": true },
{ "_id": "summary/aur/LBB",   "main": "inner will/mind/heart", "dubious": true },
{ "_id": "summary/aur/LBN",   "main": "be white", "dubious": true },
{ "_id": "summary/aur/LBSh",  "main": "wear/clothe", "dubious": true },
{ "_id": "summary/aur/LEB",   "main": "gleam/flash/flame", "dubious": true },
{ "_id": "summary/aur/LETh",  "main": "blaze/consume/flame", "dubious": true },
{ "_id": "summary/aur/LHM",   "main": "battle/eat/food", "dubious": true },
{ "_id": "summary/aur/LHSh",  "main": "whisper/charm", "dubious": true },
{ "_id": "summary/aur/LHTs",  "main": "squeeze/oppress", "dubious": true },
{ "_id": "summary/aur/LHY",   "main": "jaw/cheek", "dubious": true },
{ "_id": "summary/aur/LKL",   "main": "capture/sieze/take", "dubious": true },
{ "_id": "summary/aur/LMD",   "main": "learn/train/exercise", "dubious": true },
{ "_id": "summary/aur/LOG",   "main": "mock/deride", "dubious": true },
{ "_id": "summary/aur/LPD",   "main": "flash/torch/flame", "dubious": true },
{ "_id": "summary/aur/LQQ",   "main": "lap/lick", "dubious": true },
{ "_id": "summary/aur/LQSh",  "main": "be late/latter", "dubious": true },
{ "_id": "summary/aur/LQTh",  "main": "pick/glean/gather", "dubious": true },
{ "_id": "summary/aur/LShN",  "main": "tongue/speak", "dubious": true },
{ "_id": "summary/aur/LUE",   "main": "join/borrow", "dubious": true },
{ "_id": "summary/aur/LUN",   "main": "murmur/lodge/abide (temporarily, for the night)", "dubious": true },
{ "_id": "summary/aur/LUTh",  "main": "enwrap/envelop/conceal", "dubious": true },
{ "_id": "summary/aur/LUZ",   "main": "turn aside/depart", "dubious": true },
{ "_id": "summary/aur/LYL",   "main": "night", "dubious": true },
{ "_id": "summary/aur/LYLE", "_rev": "3-abc66c37a682f9090474b26fc7b3298d", "main": "night" },
{ "_id": "summary/aur/LYN",   "main": "murmur/lodge/abide (temporarily, for the night)", "dubious": true },
{ "_id": "summary/aur/LYTs",  "main": "scorn", "dubious": true },
{ "_id": "summary/aur/MAD",   "main": "force/abundance/exceedingly", "dubious": true },
{ "_id": "summary/aur/MAE",   "main": "hundred(?)", "dubious": true },
{ "_id": "summary/aur/MAKL", "_rev": "1-9c4c35786c567493d3d814caf342f053", "main": "food", "dubious": true },
{ "_id": "summary/aur/MDD",   "main": "measure", "dubious": true },
{ "_id": "summary/aur/MEN",   "main": "refuse", "dubious": true },
{ "_id": "summary/aur/MER",   "main": "hasten/swift", "dubious": true },
{ "_id": "summary/aur/MES",   "main": "reject", "dubious": true },
{ "_id": "summary/aur/MHE",   "main": "wipe away/wipe out", "dubious": true },
{ "_id": "summary/aur/MHR",   "main": "tomorrow/time to come", "dubious": true },
{ "_id": "summary/aur/MHTs",  "main": "shatter/wound severely", "dubious": true },
{ "_id": "summary/aur/MKR",   "main": "sell", "dubious": true },
{ "_id": "summary/aur/MLH",   "main": "salt(?)", "dubious": true },
{ "_id": "summary/aur/MLTh",  "main": "slip away", "dubious": true },
{ "_id": "summary/aur/MMShLE", "_rev": "3-49ede447133ef416e1880efe8c08c528", "main": "dominion", "dubious": true },
{ "_id": "summary/aur/MN", "_rev": "1-e45dc9d9d14fe1b5269e702802fb8947", "main": "from" },
{ "_id": "summary/aur/MNE",   "main": "count/assign/appoint/apportion", "dubious": true },
{ "_id": "summary/aur/MNH",   "main": "give/offer/tribute", "dubious": true },
{ "_id": "summary/aur/MNO",   "main": "withold", "dubious": true },
{ "_id": "summary/aur/MOE",   "main": "inner organs/parts", "dubious": true },
{ "_id": "summary/aur/MOL",   "main": "cover/unfaithful/treacherous", "dubious": true },
{ "_id": "summary/aur/MOTh",  "main": "be small/few/diminish", "dubious": true },
{ "_id": "summary/aur/MQQ",   "main": "decay/rot/fester", "dubious": true },
{ "_id": "summary/aur/MQUE", "_rev": "1-81279b07fd2e34a370b93b769c576ec4", "main": "abide/mass" },
{ "_id": "summary/aur/MQUM", "_rev": "1-6f13938bce7b7233efb932815e5cbcb5", "main": "proper place" },
{ "_id": "summary/aur/MRAE", "_rev": "1-d6449957f0e47bb370e0fe3db3b45191", "main": "observational senses" },
{ "_id": "summary/aur/MRD",   "main": "rebel/revolt", "dubious": true },
{ "_id": "summary/aur/MRH",   "main": "be disobedient/rebellious", "dubious": true },
{ "_id": "summary/aur/MRTh",  "main": "make smooth/bare/polish", "dubious": true },
{ "_id": "summary/aur/MS",    "main": "forced labor/service", "dubious": true },
{ "_id": "summary/aur/MSE",   "main": "melt/dissolve", "dubious": true },
{ "_id": "summary/aur/MShH",  "main": "anoint/smear", "dubious": true },
{ "_id": "summary/aur/MShK",  "main": "draw/prolong/drag/trail", "dubious": true },
{ "_id": "summary/aur/MShL", "_rev": "2-117856acfb564329a3ab11c5b65c9b4a", "main": "lead (by example) / proverb" },
{ "_id": "summary/aur/MShPTh", "_rev": "1-542d13001801e27bc90348f85c70991a", "main": "judgement" },
{ "_id": "summary/aur/MShSh", "main": "feel/grope (blindly, or in searching with the hands)", "dubious": true },
{ "_id": "summary/aur/MSK",   "main": "mix/pour", "dubious": true },
{ "_id": "summary/aur/MSS",   "main": "melt/dissolve", "dubious": true },
{ "_id": "summary/aur/MT",    "main": "male/man", "dubious": true },
{ "_id": "summary/aur/MTG",   "main": "bridle/control", "dubious": true },
{ "_id": "summary/aur/MThR",  "main": "rain", "dubious": true },
{ "_id": "summary/aur/MTN",   "main": "loins (as seat of action or strength; not sexual)", "dubious": true },
{ "_id": "summary/aur/MTQ",   "main": "be sweet/pleasant", "dubious": true },
{ "_id": "summary/aur/MTsTs", "main": "drain/drain out/drain into", "dubious": true },
{ "_id": "summary/aur/MTY",   "main": "when?", "dubious": true },
{ "_id": "summary/aur/MUD",   "main": "continue/extend/prolong/uninterrupted", "dubious": true },
{ "_id": "summary/aur/MUG",   "main": "melt/soften/dissolve", "dubious": true },
{ "_id": "summary/aur/MUL",   "main": "circumcise/in front of", "dubious": true },
{ "_id": "summary/aur/MUOD", "_rev": "1-368712bfd3e8705cbbefa1cd6880fcd8", "main": "appointed time/place" },
{ "_id": "summary/aur/MUR",   "main": "change/alter/exchanged", "dubious": true },
{ "_id": "summary/aur/MUSh",  "main": "depart/remove/take/recede", "dubious": true },
{ "_id": "summary/aur/MUSR", "_rev": "1-e0a73dcb6ee08677f34632cb5b1dea22", "main": "moral discipline/chastening" },
{ "_id": "summary/aur/MUTh",  "main": "totter/shake/slip/dislodge", "dubious": true },
{ "_id": "summary/aur/MY",    "main": "who?", "dubious": true },
{ "_id": "summary/aur/MYM", "_rev": "1-8ddf3833487680e0e50322e5dd7431a7", "main": "water", "suffix": "(s)" },
{ "_id": "summary/aur/NAM",   "main": "utter/declare/reveal (divine or prophetic speech)", "dubious": true },
{ "_id": "summary/aur/NAP",   "main": "adultery/idolatry", "dubious": true },
{ "_id": "summary/aur/NATs",  "main": "contemn/spurn", "dubious": true },
{ "_id": "summary/aur/NBA",   "main": "prophesy/proclaim/utter", "dubious": true },
{ "_id": "summary/aur/NBL",   "main": "be senseless/disgraceful/sink/fall/languish/fade/bottle/jar/harp(?)", "dubious": true },
{ "_id": "summary/aur/NBO",   "main": "bubble up/ferment/belch/emit/pour", "dubious": true },
{ "_id": "summary/aur/NBTh",  "main": "look/look upon/pay attention to", "dubious": true },
{ "_id": "summary/aur/NDB",   "main": "incite/volunteer", "dubious": true },
{ "_id": "summary/aur/NDD",   "main": "retreat/flee/wander", "dubious": true },
{ "_id": "summary/aur/NDE",   "main": "thrust/banish/drive away", "dubious": true },
{ "_id": "summary/aur/NDP",   "main": "drive asunder/scatter", "dubious": true },
{ "_id": "summary/aur/NDR",   "main": "vow", "dubious": true },
{ "_id": "summary/aur/NEE",   "main": "wail/lament/mourn", "dubious": true },
{ "_id": "summary/aur/NEG",   "main": "lead/guide/drive/conduct", "dubious": true },
{ "_id": "summary/aur/NEL",   "main": "lead/guide/bring to rest (such as to a goal or station where rest or replenishment can be had)", "dubious": true },
{ "_id": "summary/aur/NEM",   "main": "growl/groan", "dubious": true },
{ "_id": "summary/aur/NGE",   "main": "shine/bright (as of a clear day)", "dubious": true },
{ "_id": "summary/aur/NGN",   "main": "play music", "dubious": true },
{ "_id": "summary/aur/NGP",   "main": "strike/smite/plague", "dubious": true },
{ "_id": "summary/aur/NGR",   "main": "pour/trickle/stretch", "dubious": true },
{ "_id": "summary/aur/NGSh",  "main": "draw near/approach/affect (with the presence having a tangible or forceful impact, such as with intimidation)", "dubious": true },
{ "_id": "summary/aur/NHE",   "main": "guide/instruct", "dubious": true },
{ "_id": "summary/aur/NHL",   "main": "possess/apportion/torrent/river", "dubious": true },
{ "_id": "summary/aur/NHM",   "main": "be sorry/repent/console/comfort", "dubious": true },
{ "_id": "summary/aur/NHT",   "main": "descend", "dubious": true },
{ "_id": "summary/aur/NKE",   "main": "strike/smite/kill/destroy", "dubious": true },
{ "_id": "summary/aur/NKH",   "main": "be straightforward/honest/in front of", "dubious": true },
{ "_id": "summary/aur/NKL",   "main": "be crafty/deceitful/knavish", "dubious": true },
{ "_id": "summary/aur/NKR",   "main": "recognize/acknowledge/foreign/distinguish (a sense of acknowledging from the outside that which is separate or foreign from you)", "dubious": true },
{ "_id": "summary/aur/NOL",   "main": "shoe", "dubious": true },
{ "_id": "summary/aur/NOM",   "main": "be pleasant/delightful", "dubious": true },
{ "_id": "summary/aur/NOR",   "main": "lad/youth/shake off", "dubious": true },
{ "_id": "summary/aur/NPH",   "main": "breathe out/blow", "dubious": true },
{ "_id": "summary/aur/NPL",   "main": "fall/ruin", "dubious": true },
{ "_id": "summary/aur/NPTs",  "main": "shatter/pulverize/disperse", "dubious": true },
{ "_id": "summary/aur/NQBE", "_rev": "1-de39d174183d0775b138211915b9b762", "main": "female", "dubious": true },
{ "_id": "summary/aur/NQD",   "main": "speckle/crumble", "dubious": true },
{ "_id": "summary/aur/NQE",   "main": "be clean/exempt/acquitted", "dubious": true },
{ "_id": "summary/aur/NQM",   "main": "avenge", "dubious": true },
{ "_id": "summary/aur/NQR",   "main": "encircle/go around/bore", "dubious": true },
{ "_id": "summary/aur/NS",    "main": "signal/sign/standard", "dubious": true },
{ "_id": "summary/aur/NSE",   "main": "test/trial/prove/tempt", "dubious": true },
{ "_id": "summary/aur/NShA",  "main": "lift/carry/take/extract", "dubious": true },
{ "_id": "summary/aur/NShE",  "main": "lend/credit/forget", "dubious": true },
{ "_id": "summary/aur/NShG",  "main": "reach/overtake", "dubious": true },
{ "_id": "summary/aur/NShL",  "main": "cast off", "dubious": true },
{ "_id": "summary/aur/NShM",  "main": "breath/spirit", "dubious": true },
{ "_id": "summary/aur/NShME", "_rev": "1-7c67d05c3fc43c0c03fdcda14b8b6dfe", "main": "spirit", "dubious": true },
{ "_id": "summary/aur/NShP",  "main": "twilight", "dubious": true },
{ "_id": "summary/aur/NShQ",  "main": "kiss/gently touch", "dubious": true },
{ "_id": "summary/aur/NShR",  "main": "vulture(?)/eagle(?)", "dubious": true },
{ "_id": "summary/aur/NSK",   "main": "pour/cast (pouring out of a liquid libation or molten metal)", "dubious": true },
{ "_id": "summary/aur/NSO",   "main": "begin journey/set out/lift away", "dubious": true },
{ "_id": "summary/aur/NThE",  "main": "extend/spread/bend/", "dubious": true },
{ "_id": "summary/aur/NThL",  "main": "lift/bear (as with something heavy or burdensome)", "dubious": true },
{ "_id": "summary/aur/NThO",  "main": "plant/establish", "dubious": true },
{ "_id": "summary/aur/NThP",  "main": "drop/drip", "dubious": true },
{ "_id": "summary/aur/NThR",  "main": "keep/guard/maintain", "dubious": true },
{ "_id": "summary/aur/NThSh", "main": "leave/forsake/permit/leave alone", "dubious": true },
{ "_id": "summary/aur/NTK",   "main": "flow/be poured", "dubious": true },
{ "_id": "summary/aur/NTN",   "main": "give/put/place", "dubious": true },
{ "_id": "summary/aur/NTQ",   "main": "tear apart/tear out/drag away", "dubious": true },
{ "_id": "summary/aur/NTR",   "main": "be free/loose/spring", "dubious": true },
{ "_id": "summary/aur/NTsB",  "main": "stand/station/preside (upright, firmly)", "dubious": true },
{ "_id": "summary/aur/NTsH",  "main": "be/enduring/eminent/oversee", "dubious": true },
{ "_id": "summary/aur/NTSh",  "main": "pluck up/root out", "dubious": true },
{ "_id": "summary/aur/NTsL",  "main": "snatch away/rescue/recover/deliver", "dubious": true },
{ "_id": "summary/aur/NTsR",  "main": "watch/guard/keep/preserve", "dubious": true },
{ "_id": "summary/aur/NTTs",  "main": "break/pull down", "dubious": true },
{ "_id": "summary/aur/NUA",   "main": "hinder/oppose/frustrate", "dubious": true },
{ "_id": "summary/aur/NUB",   "main": "fruit/flourish", "dubious": true },
{ "_id": "summary/aur/NUD",   "main": "wander/waver/grieve/quiver", "dubious": true },
{ "_id": "summary/aur/NUE",   "main": "dwell/abide/meadow/sanctuary (often a dwelling place of animals or of people who manage animals, with an implication of relative safety)", "dubious": true },
{ "_id": "summary/aur/NUH",   "main": "rest/settle/quiet/deposit/leave alone", "dubious": true },
{ "_id": "summary/aur/NUM",   "main": "slumber", "dubious": true },
{ "_id": "summary/aur/NUP",   "main": "wield/sprinkle/wave/move to and fro", "dubious": true },
{ "_id": "summary/aur/NUS",   "main": "flee/escape/hide", "dubious": true },
{ "_id": "summary/aur/NUTs",  "main": "quiver/wave/shake/toss about", "dubious": true },
{ "_id": "summary/aur/NYR",   "main": "give light/lamp", "dubious": true },
{ "_id": "summary/aur/NZE",   "main": "spurt/spatter/sprinkle (often blood, though not always)", "dubious": true },
{ "_id": "summary/aur/NZR",   "main": "dedicate/separate/consecrate", "dubious": true },
{ "_id": "summary/aur/OBE",   "main": "thick/dense", "dubious": true },
{ "_id": "summary/aur/OBR",   "main": "pass over/through/beyond", "dubious": true },
{ "_id": "summary/aur/OBT",   "main": "weave/twist/interwoven/rope", "dubious": true },
{ "_id": "summary/aur/OD",    "main": "as far as/until/while", "dubious": true },
{ "_id": "summary/aur/ODE",   "main": "ornament/bedeck/testimony/witness", "dubious": true },
{ "_id": "summary/aur/ODP",   "main": "remain/excess/surplus", "dubious": true },
{ "_id": "summary/aur/ODR",   "main": "flock/herd", "dubious": true },
{ "_id": "summary/aur/OG",    "main": "dense cloud/thicket", "dubious": true },
{ "_id": "summary/aur/OGB",   "main": "lust/sensuous", "dubious": true },
{ "_id": "summary/aur/OGL",   "main": "calf(?)", "dubious": true },
{ "_id": "summary/aur/OKR",   "main": "stir up/disturb/trouble", "dubious": true },
{ "_id": "summary/aur/OLL",   "main": "be wanton/severe/ruthless", "dubious": true },
{ "_id": "summary/aur/OLM",   "main": "conceal/epoch", "dubious": true },
{ "_id": "summary/aur/OLTs",  "main": "rejoice/exult", "dubious": true },
{ "_id": "summary/aur/OMD",   "main": "stand/stand still/stand before/pillar", "dubious": true },
{ "_id": "summary/aur/OML",   "main": "labour/toil/trouble/suffer", "dubious": true },
{ "_id": "summary/aur/OMQ",   "main": "be deep/depth/valley", "dubious": true },
{ "_id": "summary/aur/ONE",   "main": "answer/respond/task/be humbled/be afflicted/sing", "dubious": true },
{ "_id": "summary/aur/ONG",   "main": "be delicate/dainty/luxurious", "dubious": true },
{ "_id": "summary/aur/OPL",   "main": "swell/mound/hill", "dubious": true },
{ "_id": "summary/aur/OQB",   "main": "heel/footprint/hold back/overreach/consequence/purpose/because", "dubious": true },
{ "_id": "summary/aur/OQSh",  "main": "twist/pervert/make crooked", "dubious": true },
{ "_id": "summary/aur/ORL",   "main": "foreskin/uncircumcised", "dubious": true },
{ "_id": "summary/aur/ORM",   "main": "shrewd/crafty/heap", "dubious": true },
{ "_id": "summary/aur/ORP",   "main": "drip/drop/cloud/back of neck(?)", "dubious": true },
{ "_id": "summary/aur/ORR",   "main": "lay bare/strip", "dubious": true },
{ "_id": "summary/aur/ORSh",  "main": "couch/divan(?)", "dubious": true },
{ "_id": "summary/aur/ORTs",  "main": "tremble with awe/dread", "dubious": true },
{ "_id": "summary/aur/ORUM", "_rev": "2-d7e94a2f41e742dda407b307cb1b2ffb", "main": "naked/bare/shrewd", "dubious": true },
{ "_id": "summary/aur/OShQ",  "main": "extort/oppress", "dubious": true },
{ "_id": "summary/aur/OShR",  "main": "ten/gather/unite//be rich/make rich", "dubious": true },
{ "_id": "summary/aur/OT",    "main": "time/occurrence (a point in time, such as the time of an event)", "dubious": true },
{ "_id": "summary/aur/OTD",   "main": "be ready/prepared", "dubious": true },
{ "_id": "summary/aur/OThE",  "main": "enwrap/envelop/grasp", "dubious": true },
{ "_id": "summary/aur/OThP",  "main": "be feeble/faint", "dubious": true },
{ "_id": "summary/aur/OThR",  "main": "surround/crown/wreath", "dubious": true },
{ "_id": "summary/aur/OTQ",   "main": "forward/advance/unrestrained", "dubious": true },
{ "_id": "summary/aur/OTR",   "main": "pray/supplicate", "dubious": true },
{ "_id": "summary/aur/OTsB",  "main": "hurt/pain/grieve", "dubious": true },
{ "_id": "summary/aur/OTsM", "_rev": "1-31a21f344d2d9217052d64abda6e27d7", "main": "be strong/bone/substance/self", "dubious": true },
{ "_id": "summary/aur/OTsR",  "main": "restrain/retain/stop", "dubious": true },
{ "_id": "summary/aur/OUD",   "main": "still/yet/again/besides", "dubious": true },
{ "_id": "summary/aur/OUE",   "main": "distort/ruin/iniquity", "dubious": true },
{ "_id": "summary/aur/OUL",   "main": "be unjust/unrighteous/wrong", "dubious": true },
{ "_id": "summary/aur/OUN",   "main": "dwell/abide/refuge", "dubious": true },
{ "_id": "summary/aur/OUPP", "_rev": "1-aa45eed02d9cb7c837252366fe2bc444", "main": "fly about", "dubious": true },
{ "_id": "summary/aur/OUR",   "main": "rouse/agitate/blind/expose/naked", "dubious": true },
{ "_id": "summary/aur/OUT",   "main": "bend/subvert/make crooked", "dubious": true },
{ "_id": "summary/aur/OUZ",   "main": "seek refuge", "dubious": true },
{ "_id": "summary/aur/OYP",   "main": "be faint/weary", "dubious": true },
{ "_id": "summary/aur/OYR",   "main": "city/town", "dubious": true },
{ "_id": "summary/aur/OYRM", "_rev": "1-d88f85707ebd493fb511183bfcb823be", "main": "nakedness", "dubious": true },
{ "_id": "summary/aur/OZ",    "main": "strong/mighty/fierce", "dubious": true },
{ "_id": "summary/aur/OZZ",   "main": "be strong/mighty/fierce", "dubious": true },
{ "_id": "summary/aur/P", "_rev": "1-b881dfa7157e719ed1f88458ec79b45d", "prefix": "[punctuation]" },
{ "_id": "summary/aur/PAE",   "main": "corner/side", "dubious": true },
{ "_id": "summary/aur/PAR",   "main": "beautify/glorify", "dubious": true },
{ "_id": "summary/aur/PDE",   "main": "ransom/pay", "dubious": true },
{ "_id": "summary/aur/PE",    "main": "mouth", "dubious": true },
{ "_id": "summary/aur/PGO",   "main": "encounter/reach", "dubious": true },
{ "_id": "summary/aur/PGSh",  "main": "meet/encounter", "dubious": true },
{ "_id": "summary/aur/PHD",   "main": "dread/awe", "dubious": true },
{ "_id": "summary/aur/PLA",   "main": "be extraordinary/surpass", "dubious": true },
{ "_id": "summary/aur/PLE",   "main": "be distinct/separate", "dubious": true },
{ "_id": "summary/aur/PLG",   "main": "cleave/channel", "dubious": true },
{ "_id": "summary/aur/PLH",   "main": "cleave open", "dubious": true },
{ "_id": "summary/aur/PLL",   "main": "intervene/interpose/mediate", "dubious": true },
{ "_id": "summary/aur/PLS",   "main": "balance/weigh/make level", "dubious": true },
{ "_id": "summary/aur/PLTh",  "main": "escape", "dubious": true },
{ "_id": "summary/aur/PLTs",  "main": "shudder", "dubious": true },
{ "_id": "summary/aur/PNE",   "main": "face/turn/look/countenance", "dubious": true },
{ "_id": "summary/aur/PNY", "_rev": "1-f5cdfa78ab53c964a7a9de787caca1d0", "main": "face" },
{ "_id": "summary/aur/POL",   "main": "do/work/deed/make", "dubious": true },
{ "_id": "summary/aur/PQR",   "main": "attend to/visit/appoint", "dubious": true },
{ "_id": "summary/aur/PRE",   "main": "bear fruit/be fruitful", "dubious": true },
{ "_id": "summary/aur/PRH",   "main": "bud/sprout/shoot", "dubious": true },
{ "_id": "summary/aur/PRO",   "main": "let loose/let alone/let go", "dubious": true },
{ "_id": "summary/aur/PRQ",   "main": "tear away/snatch", "dubious": true },
{ "_id": "summary/aur/PRR",   "main": "break/violate/annul/frustrate/young bull(?)", "dubious": true },
{ "_id": "summary/aur/PRS",   "main": "break in two/divide", "dubious": true },
{ "_id": "summary/aur/PRSh",  "main": "spread out/spread over/horse(?)", "dubious": true },
{ "_id": "summary/aur/PRT", "_rev": "1-3341c27f447ddc46c49a1ede712912b0", "main": "PRT", "dubious": true },
{ "_id": "summary/aur/PRTs",  "main": "break through/burst open/breach", "dubious": true },
{ "_id": "summary/aur/PRY", "_rev": "1-c3048aff6b4e2b9480977d63f68e6719", "main": "fruit" },
{ "_id": "summary/aur/PSH",   "main": "go back and forth repetitively (the feast of 'Passover')", "dubious": true },
{ "_id": "summary/aur/PShO",  "main": "transgress", "dubious": true },
{ "_id": "summary/aur/PShTh", "main": "strip off (of clothing)", "dubious": true },
{ "_id": "summary/aur/PSL",   "main": "carve/idol/graven image", "dubious": true },
{ "_id": "summary/aur/PTE",   "main": "be gullible/susceptible to persuasion", "dubious": true },
{ "_id": "summary/aur/PTH",   "main": "open/free/let out/let loose/gateway", "dubious": true },
{ "_id": "summary/aur/PThR",  "main": "separate/open/set free", "dubious": true },
{ "_id": "summary/aur/PTR",   "main": "interpret (dreams)", "dubious": true },
{ "_id": "summary/aur/PTsE",  "main": "part/open (of a mouth)", "dubious": true },
{ "_id": "summary/aur/PTsH",  "main": "burst open/break forth", "dubious": true },
{ "_id": "summary/aur/PTsR",  "main": "urge/push/press upon", "dubious": true },
{ "_id": "summary/aur/PUE",   "main": "here/hither", "dubious": true },
{ "_id": "summary/aur/PUG",   "main": "be numb", "dubious": true },
{ "_id": "summary/aur/PUH",   "main": "blow/puff/inflame", "dubious": true },
{ "_id": "summary/aur/PUTs",  "main": "be dispersed/scattered", "dubious": true },
{ "_id": "summary/aur/PYShUN", "_rev": "2-267f0769f0794b79a6fa537c78e03909", "main": "PYShON", "dubious": true },
{ "_id": "summary/aur/PZR",   "main": "be scattered", "dubious": true },
{ "_id": "summary/aur/PZZ",   "main": "be refined/supple/agile", "dubious": true },
{ "_id": "summary/aur/QBB",   "main": "curse", "dubious": true },
{ "_id": "summary/aur/QBL",   "main": "accept/receive", "dubious": true },
{ "_id": "summary/aur/QBR",   "main": "bury/tomb", "dubious": true },
{ "_id": "summary/aur/QBTs",  "main": "gather/collect", "dubious": true },
{ "_id": "summary/aur/QDD",   "main": "bow down/give homage", "dubious": true },
{ "_id": "summary/aur/QDR",   "main": "darken/dim/gloom", "dubious": true },
{ "_id": "summary/aur/QEL",   "main": "congregate/assemble", "dubious": true },
{ "_id": "summary/aur/QLE",   "main": "roast/parch/belittle", "dubious": true },
{ "_id": "summary/aur/QLL",   "main": "be slight/swift/trifling", "dubious": true },
{ "_id": "summary/aur/QLO",   "main": "sling/hurl forth", "dubious": true },
{ "_id": "summary/aur/QLS",   "main": "mock/deride", "dubious": true },
{ "_id": "summary/aur/QNA",   "main": "be zealous/ardourous/passionate/jealous (supposedly from the color in the face produced by deep emotion", "dubious": true },
{ "_id": "summary/aur/QNE",   "main": "get/acquire/reed(?)", "dubious": true },
{ "_id": "summary/aur/QPA",   "main": "thicken/congeal/condense", "dubious": true },
{ "_id": "summary/aur/QPTs",  "main": "draw together/shut", "dubious": true },
{ "_id": "summary/aur/QRE",   "main": "encounter/chance upon", "dubious": true },
{ "_id": "summary/aur/QRH",   "main": "make bald/frost/ice", "dubious": true },
{ "_id": "summary/aur/QRN",   "main": "horn", "dubious": true },
{ "_id": "summary/aur/QRO",   "main": "tear/tend asunder", "dubious": true },
{ "_id": "summary/aur/QRR",   "main": "be cold", "dubious": true },
{ "_id": "summary/aur/QRTs",  "main": "pinch/nip", "dubious": true },
{ "_id": "summary/aur/QShB",  "main": "give attention", "dubious": true },
{ "_id": "summary/aur/QShE",  "main": "be hard/severe/fierce", "dubious": true },
{ "_id": "summary/aur/QShR",  "main": "bind/league together/conspire", "dubious": true },
{ "_id": "summary/aur/QShT",  "main": "bow/archer", "dubious": true },
{ "_id": "summary/aur/QSM",   "main": "divinate(?)", "dubious": true },
{ "_id": "summary/aur/QThR",  "main": "incense/smoke", "dubious": true },
{ "_id": "summary/aur/QTs",   "main": "end/cessation/final", "dubious": true },
{ "_id": "summary/aur/QTsE",  "main": "end/extremity", "dubious": true },
{ "_id": "summary/aur/QTsP",  "main": "wrath", "dubious": true },
{ "_id": "summary/aur/QTsR",  "main": "reap/harvest/come to end/reach limit of what is available", "dubious": true },
{ "_id": "summary/aur/QTsTs", "main": "cut off", "dubious": true },
{ "_id": "summary/aur/QUE",   "main": "wait/endure/stretch/tension", "dubious": true },
{ "_id": "summary/aur/QUL",   "main": "sound/voice", "dubious": true },
{ "_id": "summary/aur/QUM",   "main": "arise/stand/erect", "dubious": true },
{ "_id": "summary/aur/QUR",   "main": "spring/fountain/source of flow", "dubious": true },
{ "_id": "summary/aur/QUTh",  "main": "loathe", "dubious": true },
{ "_id": "summary/aur/QUTs",  "main": "loathe/abhor/sickening dread/thorn", "dubious": true },
{ "_id": "summary/aur/QUU", "_rev": "1-2c13a9805671731b2dec2befb81218aa", "main": "gather", "dubious": true },
{ "_id": "summary/aur/QYA",   "main": "vomit", "dubious": true },
{ "_id": "summary/aur/QYR",   "main": "wall/surface", "dubious": true },
{ "_id": "summary/aur/QYTs",  "main": "awaken", "dubious": true },
{ "_id": "summary/aur/RAE", "_rev": "6-afff4db8e2c449204151a3fba7d7d0e3", "main": "observe" },
{ "_id": "summary/aur/RAH",   "main": "see", "dubious": true },
{ "_id": "summary/aur/RAShYT", "_rev": "2-e10428be03ffa45456b0e8bc8cbdffb2", "main": "head/foremost/chief" },
{ "_id": "summary/aur/RBB",   "main": "be great/chief/many/much", "dubious": true },
{ "_id": "summary/aur/RBO",   "main": "four", "dubious": true },
{ "_id": "summary/aur/RBTs",  "main": "stretch out/lie down", "dubious": true },
{ "_id": "summary/aur/RBYOY", "_rev": "1-4b0c58e52e7e04113c1ef21cd6c5bc1d", "main": "fourth" },
{ "_id": "summary/aur/RDM",   "main": "deep sleep", "dubious": true },
{ "_id": "summary/aur/RDP",   "main": "pursue/chase/persecute", "dubious": true },
{ "_id": "summary/aur/RGL",   "main": "foot/leg/walk", "dubious": true },
{ "_id": "summary/aur/RGM",   "main": "stone/kill by stoning", "dubious": true },
{ "_id": "summary/aur/RGO",   "main": "for a moment/rest", "dubious": true },
{ "_id": "summary/aur/RGZ",   "main": "be agitated/excited/perturbed", "dubious": true },
{ "_id": "summary/aur/RHB",   "main": "enlarge/widen/broaden", "dubious": true },
{ "_id": "summary/aur/RHM",   "main": "womb/compassion", "dubious": true },
{ "_id": "summary/aur/RHQ",   "main": "be distant/far", "dubious": true },
{ "_id": "summary/aur/RHTs",  "main": "bathe/wash", "dubious": true },
{ "_id": "summary/aur/RKB",   "main": "ride/mount", "dubious": true },
{ "_id": "summary/aur/RKK",   "main": "be tender/soft/timid", "dubious": true },
{ "_id": "summary/aur/RKL",   "main": "traffic/trade/gossip", "dubious": true },
{ "_id": "summary/aur/RKSh",  "main": "movable property (often animals)", "dubious": true },
{ "_id": "summary/aur/RME",   "main": "beguile/deceive/betray", "dubious": true },
{ "_id": "summary/aur/RMS",   "main": "trample", "dubious": true },
{ "_id": "summary/aur/RNE",   "main": "ringing cry", "dubious": true },
{ "_id": "summary/aur/RNN",   "main": "ringing cry", "dubious": true },
{ "_id": "summary/aur/ROB",   "main": "hunger/famine", "dubious": true },
{ "_id": "summary/aur/ROE",   "main": "shepherd/tend/companion/friend", "dubious": true },
{ "_id": "summary/aur/ROM",   "main": "thunder", "dubious": true },
{ "_id": "summary/aur/ROSh",  "main": "quake/shake", "dubious": true },
{ "_id": "summary/aur/ROY", "_rev": "1-1160d765c0a23361ca5e77a8ed7c8724", "main": "pasture/shepherd", "dubious": true },
{ "_id": "summary/aur/RPA",   "main": "heal", "dubious": true },
{ "_id": "summary/aur/RPE",   "main": "sink/relax/let fall", "dubious": true },
{ "_id": "summary/aur/RQ",    "main": "only/merely/exclusively/nothing but", "dubious": true },
{ "_id": "summary/aur/RQE",   "main": "mix/ointment/spice", "dubious": true },
{ "_id": "summary/aur/RQM",   "main": "variegate", "dubious": true },
{ "_id": "summary/aur/RQYO", "_rev": "1-be7b6e4432ca6a842a01772af979efa2", "main": "firmament" },
{ "_id": "summary/aur/RShO",  "main": "be guilty/criminal", "dubious": true },
{ "_id": "summary/aur/RTsE",  "main": "be pleased with/accept favorably", "dubious": true },
{ "_id": "summary/aur/RTsH",  "main": "murder/slay", "dubious": true },
{ "_id": "summary/aur/RTsTs", "main": "crush/break/oppress", "dubious": true },
{ "_id": "summary/aur/RUD",   "main": "be restless/roam", "dubious": true },
{ "_id": "summary/aur/RUE",   "main": "be saturated/drenched", "dubious": true },
{ "_id": "summary/aur/RUM",   "main": "be high/exalted/rise", "dubious": true },
{ "_id": "summary/aur/RUO",   "main": "raise shout/give blast/alarm", "dubious": true },
{ "_id": "summary/aur/RUTs",  "main": "run (often as a messenger)", "dubious": true },
{ "_id": "summary/aur/RYB",   "main": "contend/dispute/strive", "dubious": true },
{ "_id": "summary/aur/RYH",   "main": "smell/scent/odor", "dubious": true },
{ "_id": "summary/aur/RYQ",   "main": "empty/ineffectual", "dubious": true },
{ "_id": "summary/aur/RYSh",  "main": "be poor/wanting", "dubious": true },
{ "_id": "summary/aur/SBA",   "main": "imbibe/liquor/drunkenness", "dubious": true },
{ "_id": "summary/aur/SBL",   "main": "bear/burden (as with a heavy load)", "dubious": true },
{ "_id": "summary/aur/SDR",   "main": "arrange in order", "dubious": true },
{ "_id": "summary/aur/ShAB",  "main": "draw/pull/magnet", "dubious": true },
{ "_id": "summary/aur/ShAE",  "main": "din/crash/roar", "dubious": true },
{ "_id": "summary/aur/ShAG",  "main": "roar", "dubious": true },
{ "_id": "summary/aur/ShAL",  "main": "ask/inquire", "dubious": true },
{ "_id": "summary/aur/ShAP",  "main": "trample/crush//gasp/pant", "dubious": true },
{ "_id": "summary/aur/ShAN",  "main": "be at rest/at ease/free from trouble", "dubious": true },
{ "_id": "summary/aur/ShAR",  "main": "remain/be left behind/residue/remnant/flesh", "dubious": true },
{ "_id": "summary/aur/ShBE",  "main": "take captive", "dubious": true },
{ "_id": "summary/aur/ShBH",  "main": "soothe/still", "dubious": true },
{ "_id": "summary/aur/ShBL",  "main": "flow/flowing thing", "dubious": true },
{ "_id": "summary/aur/ShBO",  "main": "seven/swear/oath/be sated/satisfied", "dubious": true },
{ "_id": "summary/aur/ShBR",  "main": "break/rupture/shatter", "dubious": true },
{ "_id": "summary/aur/ShBTh", "main": "rod/staff/tribe", "dubious": true },
{ "_id": "summary/aur/ShBYOY", "_rev": "1-459a794b8de8076ea045f55a11e8d475", "main": "seventh" },
{ "_id": "summary/aur/ShD",   "main": "breast (bearing milk)", "dubious": true },
{ "_id": "summary/aur/ShDD",  "main": "despoil/devastate/ruin/assault", "dubious": true },
{ "_id": "summary/aur/ShDP",  "main": "blight", "dubious": true },
{ "_id": "summary/aur/ShE",   "main": "flock animal (one animal from a flock)", "dubious": true },
{ "_id": "summary/aur/ShEM", "_rev": "1-833137c2746e8ca977d2d98f8c07b476", "main": "onyx", "dubious": true },
{ "_id": "summary/aur/ShGB",  "main": "be inaccessibly high/exalted", "dubious": true },
{ "_id": "summary/aur/ShGG",  "main": "go astray/err/sin", "dubious": true },
{ "_id": "summary/aur/ShGO",  "main": "be mad/panic", "dubious": true },
{ "_id": "summary/aur/ShHD",  "main": "bribe", "dubious": true },
{ "_id": "summary/aur/ShHE",  "main": "bow down", "dubious": true },
{ "_id": "summary/aur/ShHH",  "main": "bow down/be humbled/reduced", "dubious": true },
{ "_id": "summary/aur/ShHQ",  "main": "laugh/jest/deride/erode/make into dust", "dubious": true },
{ "_id": "summary/aur/ShHR",  "main": "dawn/seek eagerly/diligently", "dubious": true },
{ "_id": "summary/aur/ShHT",  "main": "go to ruin/be damaged/destroyed/corrupted", "dubious": true },
{ "_id": "summary/aur/ShHTh", "main": "slaughter (usually a beast, usually for a sacrifice)", "dubious": true },
{ "_id": "summary/aur/ShKB",  "main": "lie down/lie with (used both in sexual and non sexual contexts)", "dubious": true },
{ "_id": "summary/aur/ShKE",  "main": "celestial phenomenon/imagination(?)", "dubious": true },
{ "_id": "summary/aur/ShKH",  "main": "forget/abandon", "dubious": true },
{ "_id": "summary/aur/ShKK",  "main": "abate/allay", "dubious": true },
{ "_id": "summary/aur/ShKM",  "main": "start early/rise early/shoulder(?)", "dubious": true },
{ "_id": "summary/aur/ShKN",  "main": "settle down/abide/dwell", "dubious": true },
{ "_id": "summary/aur/ShKR",  "main": "be drunken//hire/wages", "dubious": true },
{ "_id": "summary/aur/ShLE",  "main": "be at ease/content/quiet", "dubious": true },
{ "_id": "summary/aur/ShLG",  "main": "snow", "dubious": true },
{ "_id": "summary/aur/ShLH",  "main": "send/send out/send away/shoot", "dubious": true },
{ "_id": "summary/aur/ShLK",  "main": "throw/fling/cast", "dubious": true },
{ "_id": "summary/aur/ShLL",  "main": "plunder/prey/spoils", "dubious": true },
{ "_id": "summary/aur/ShLME", "_rev": "1-b9f3605862ea7299bcb15c485bb2d112", "main": "ShLME" },
{ "_id": "summary/aur/ShLP",  "main": "pull out/pull off", "dubious": true },
{ "_id": "summary/aur/ShLSh", "main": "three", "dubious": true },
{ "_id": "summary/aur/ShLTh", "main": "master/power/dominate", "dubious": true },
{ "_id": "summary/aur/ShLU",  "main": "be at ease/content/quiet", "dubious": true },
{ "_id": "summary/aur/ShLYShY", "_rev": "1-1686da2002fc200afa9654c570ac40d6", "main": "third" },
{ "_id": "summary/aur/ShMAL", "main": "left/left hand/north", "dubious": true },
{ "_id": "summary/aur/ShMD",  "main": "be annihilated/destroyed", "dubious": true },
{ "_id": "summary/aur/ShMH",  "main": "rejoice/merry", "dubious": true },
{ "_id": "summary/aur/ShML",  "main": "wrap/cloak/mantle", "dubious": true },
{ "_id": "summary/aur/ShMM",  "main": "be desolated/appalled", "dubious": true },
{ "_id": "summary/aur/ShMN",  "main": "be stout/fat", "dubious": true },
{ "_id": "summary/aur/ShMO",  "main": "hear/give heed", "dubious": true },
{ "_id": "summary/aur/ShMSh", "main": "sun", "dubious": true },
{ "_id": "summary/aur/ShMTh", "main": "let drop", "dubious": true },
{ "_id": "summary/aur/ShMY",  "main": "sky/heaven", "dubious": true },
{ "_id": "summary/aur/ShMYM", "_rev": "1-06caca6f165079f6839860a21df54f41", "main": "heaven", "suffix": "(s)" },
{ "_id": "summary/aur/ShNA",  "main": "hate", "dubious": true },
{ "_id": "summary/aur/ShNB",  "main": "change", "dubious": true },
{ "_id": "summary/aur/ShNE",  "main": "year/repeat/copy", "dubious": true },
{ "_id": "summary/aur/ShNN",  "main": "sharp/cut/tooth", "dubious": true },
{ "_id": "summary/aur/ShOE",  "main": "gaze/regard", "dubious": true },
{ "_id": "summary/aur/ShON",  "main": "lean/support oneself", "dubious": true },
{ "_id": "summary/aur/ShOR",  "main": "gateway//hair/bristle/whirl", "dubious": true },
{ "_id": "summary/aur/ShPE",  "main": "lip/speech/edge", "dubious": true },
{ "_id": "summary/aur/ShPH",  "main": "??? (something related to one's extended family, servants)", "dubious": true },
{ "_id": "summary/aur/ShPK",  "main": "pour/pour out", "dubious": true },
{ "_id": "summary/aur/ShPL",  "main": "be low/abased", "dubious": true },
{ "_id": "summary/aur/ShPR",  "main": "be clear(?) (usually referring to the sacred instrument, supposedly)", "dubious": true },
{ "_id": "summary/aur/ShQD",  "main": "watch/be wakeful/keep guard", "dubious": true },
{ "_id": "summary/aur/ShQL",  "main": "weigh/unit of weight/unit of money", "dubious": true },
{ "_id": "summary/aur/ShQO",  "main": "sink down/settle (like sediment in a liquid that grows clear as a result of its settling)", "dubious": true },
{ "_id": "summary/aur/ShQP",  "main": "overhang/look down from above", "dubious": true },
{ "_id": "summary/aur/ShQQ",  "main": "sack/sackcloth//rush/run about(?)", "dubious": true },
{ "_id": "summary/aur/ShQR",  "main": "deceive/defraud", "dubious": true },
{ "_id": "summary/aur/ShQTh", "main": "be quiet/inactive/undisturbed", "dubious": true },
{ "_id": "summary/aur/ShQTs", "main": "detest/make detestable", "dubious": true },
{ "_id": "summary/aur/ShR",   "main": "chief/ruler/captain/prince", "dubious": true },
{ "_id": "summary/aur/SHR",   "main": "traffic/travel/trade/merchant", "dubious": true },
{ "_id": "summary/aur/ShRD",  "main": "escape/survive", "dubious": true },
{ "_id": "summary/aur/ShRP",  "main": "burn (often of idols or spices, also funeral rites; root of the word for the kind of spiritual being known as a 'Seraph')", "dubious": true },
{ "_id": "summary/aur/ShRQ",  "main": "hiss/whistle/pipe", "dubious": true },
{ "_id": "summary/aur/ShRSh", "main": "root/deal with the root", "dubious": true },
{ "_id": "summary/aur/ShRT",  "main": "minister/serve/official", "dubious": true },
{ "_id": "summary/aur/ShRTh", "main": "incise/scratch", "dubious": true },
{ "_id": "summary/aur/ShSE",  "main": "plunder/spoils", "dubious": true },
{ "_id": "summary/aur/ShSh",  "main": "six", "dubious": true },
{ "_id": "summary/aur/ShShE", "main": "six", "dubious": true },
{ "_id": "summary/aur/ShSO",  "main": "divide/cleave", "dubious": true },
{ "_id": "summary/aur/ShTE",  "main": "drink", "dubious": true },
{ "_id": "summary/aur/ShThE", "main": "stray/be seduced", "dubious": true },
{ "_id": "summary/aur/ShThH", "main": "spread/spread abroad", "dubious": true },
{ "_id": "summary/aur/ShThN", "main": "adversary", "dubious": true },
{ "_id": "summary/aur/ShThP", "main": "flood/rinse/wash", "dubious": true },
{ "_id": "summary/aur/ShThR", "main": "organize/document/official/bureaucracy", "dubious": true },
{ "_id": "summary/aur/ShTL",  "main": "transplant", "dubious": true },
{ "_id": "summary/aur/ShUA",  "main": "be empty/vain/nothing", "dubious": true },
{ "_id": "summary/aur/ShUB",  "main": "return/turn back", "dubious": true },
{ "_id": "summary/aur/ShUE",  "main": "smooth/even/equate/compare/agree with/be like/resemble", "dubious": true },
{ "_id": "summary/aur/ShUH",  "main": "sink down/depression", "dubious": true },
{ "_id": "summary/aur/ShUK",  "main": "hedge/fence/brushwood", "dubious": true },
{ "_id": "summary/aur/ShUO",  "main": "cry for help", "dubious": true },
{ "_id": "summary/aur/ShUQ",  "main": "thigh/leg(?)//overflow", "dubious": true },
{ "_id": "summary/aur/ShUR",  "main": "watch/regard//cattle(?)persist/strengthen", "notes": "(BDB calls this ShRE, but ShUR seems to be how it really shows up; it is said to be one root of the portmanteau YShRAL, but ShR seems more common and a better fit; it could also be that ShR is basically the same as ShUR)", "dubious": true },
{ "_id": "summary/aur/ShUTh", "main": "scourge/whip/contempt/fall away", "dubious": true },
{ "_id": "summary/aur/ShYB",  "main": "be great haired/old", "dubious": true },
{ "_id": "summary/aur/ShYM",  "main": "put/place/set/name", "dubious": true },
{ "_id": "summary/aur/ShYR",  "main": "sing/song", "dubious": true },
{ "_id": "summary/aur/ShYSh", "main": "exult/rejoice", "dubious": true },
{ "_id": "summary/aur/ShYT",  "main": "put/set/station/found", "dubious": true },
{ "_id": "summary/aur/SKK",   "main": "cover/screen/weave/protect", "dubious": true },
{ "_id": "summary/aur/SKN",   "main": "be of service/benefit", "dubious": true },
{ "_id": "summary/aur/SLH",   "main": "forgive/pardon", "dubious": true },
{ "_id": "summary/aur/SLL",   "main": "be raised up (such as a mound or highway)", "dubious": true },
{ "_id": "summary/aur/SLO",   "main": "crag/cliff", "dubious": true },
{ "_id": "summary/aur/SLP",   "main": "twist/pervert/invert", "dubious": true },
{ "_id": "summary/aur/SMK",   "main": "lean/lay/rest/support", "dubious": true },
{ "_id": "summary/aur/SOD",   "main": "support/uphold/sustain", "dubious": true },
{ "_id": "summary/aur/SOR",   "main": "tempest/storm/toss", "dubious": true },
{ "_id": "summary/aur/SP",    "main": "basin/goblet/threshold", "dubious": true },
{ "_id": "summary/aur/SPD",   "main": "wail/lament", "dubious": true },
{ "_id": "summary/aur/SPE",   "main": "sweep away/capture", "dubious": true },
{ "_id": "summary/aur/SPH",   "main": "pour out", "dubious": true },
{ "_id": "summary/aur/SPQ",   "main": "slap/clap", "dubious": true },
{ "_id": "summary/aur/SPN",   "main": "cover/panel", "dubious": true },
{ "_id": "summary/aur/SPR",   "main": "recount/relate/enumerate/missive/writing/book", "dubious": true },
{ "_id": "summary/aur/SQL",   "main": "stone/pelt with stones", "dubious": true },
{ "_id": "summary/aur/SRH",   "main": "be unrestrained/loose/overhang/excess", "dubious": true },
{ "_id": "summary/aur/SRR",   "main": "be stubborn/rebellious/sullen", "dubious": true },
{ "_id": "summary/aur/STM",   "main": "stop up/keep closed", "dubious": true },
{ "_id": "summary/aur/STR",   "main": "hide/conceal/keep secret", "dubious": true },
{ "_id": "summary/aur/SUG",   "main": "move away/backslide", "dubious": true },
{ "_id": "summary/aur/SUP",   "main": "end/cease", "dubious": true },
{ "_id": "summary/aur/SUD",   "main": "be in familiar company", "dubious": true },
{ "_id": "summary/aur/SUR",   "main": "change course", "dubious": true },
{ "_id": "summary/aur/SUS",   "main": "horse(?)", "dubious": true },
{ "_id": "summary/aur/SUT",   "main": "incite/entice/instigate", "dubious": true },
{ "_id": "summary/aur/TAR",   "main": "outline/trace/form", "dubious": true },
{ "_id": "summary/aur/TAUE", "_rev": "1-b4308ef8b1408582983141064905bd20", "main": "desire", "dubious": true },
{ "_id": "summary/aur/TBE",   "main": "ark/box/vessel", "dubious": true },
{ "_id": "summary/aur/TBN",   "main": "straw(?)", "dubious": true },
{ "_id": "summary/aur/ThBH", "_rev": "1-2f0223f6d8c9a6fe329a1d3f832f5b5a", "main": "slaughter/butcher/cook", "dubious": true },
{ "_id": "summary/aur/ThBL", "_rev": "1-dd4f8da083839a44d07edf9e299d75f5", "main": "dip/moisten", "dubious": true },
{ "_id": "summary/aur/ThBO", "_rev": "1-c309259a35aa91230c68ee565c870460", "main": "sink/sink down", "dubious": true },
{ "_id": "summary/aur/ThER", "_rev": "1-3a9b30f967d6b3e62a71341a0fdec047", "main": "be clean/pure/purify", "dubious": true },
{ "_id": "summary/aur/ThHN", "_rev": "1-f93f2c859a7abea663c4be7d7fc3eb71", "main": "grind/mill", "dubious": true },
{ "_id": "summary/aur/ThL", "_rev": "1-1b9108218cda26d51b53442fe08c5c50", "main": "dew/night-mist", "dubious": true },
{ "_id": "summary/aur/ThMA", "_rev": "1-88f53c7b4f9ce9082bdb2461c9c77307", "main": "be unclean", "dubious": true },
{ "_id": "summary/aur/ThMN", "_rev": "1-9d3bcb19fa8db53698cccf498857ff46", "main": "bury/hide/conceal", "dubious": true },
{ "_id": "summary/aur/ThOM", "_rev": "1-34d15bb0312ce53b6c36af80c0d6f30a", "main": "taste/judge/perceive", "dubious": true },
{ "_id": "summary/aur/ThPH", "_rev": "1-95d91a04e746384d95310e3a1f9211a7", "main": "extend/spread", "dubious": true },
{ "_id": "summary/aur/ThRM", "_rev": "2-7519998af0dfc5e5612821a93e945983", "main": "before/ere/once" },
{ "_id": "summary/aur/ThRP", "_rev": "1-5b8e54d996077978ffe3a7f9b730d7ec", "main": "pluck/tear/rend", "dubious": true },
{ "_id": "summary/aur/THTN", "_rev": "1-3a359029cd425c1564d6ccebda74d6de", "main": "underneath/below", "dubious": true },
{ "_id": "summary/aur/ThUB", "_rev": "2-4d0af77a45354f36370b68b9cbaa9c9d", "main": "be good/beneficial/pleasing" },
{ "_id": "summary/aur/ThUH", "_rev": "1-d0d27d67e19fecd89078e4e3a6b13c71", "main": "cover/coat/spread", "dubious": true },
{ "_id": "summary/aur/TKN",   "main": "standardize/regulate/estimate", "dubious": true },
{ "_id": "summary/aur/TLE",   "main": "hang/hang up/dangle", "dubious": true },
{ "_id": "summary/aur/TME",   "main": "be astonished/astounded", "dubious": true },
{ "_id": "summary/aur/TMK",   "main": "grasp/hold/hold up/hold firmly", "dubious": true },
{ "_id": "summary/aur/TML",   "main": "yesterday/recently/formerly", "dubious": true },
{ "_id": "summary/aur/TMM",   "main": "be complete/sound/whole/finished/perfected/exhausted/entirely/entire", "dubious": true },
{ "_id": "summary/aur/TOB",   "main": "abhor/abomination", "dubious": true },
{ "_id": "summary/aur/TOE",   "main": "go astray/err/wander", "dubious": true },
{ "_id": "summary/aur/TPSh",  "main": "lay hold of/grasp/wield/catch", "dubious": true },
{ "_id": "summary/aur/TQO",   "main": "clap/blow/thrust (always as an emphatic gesture constituting or signifying a push to the completion of something; often clapping hands together to ratify to an agreement, or a blow on a horn )", "dubious": true },
{ "_id": "summary/aur/TQP",   "main": "prevail over/overpower", "dubious": true },
{ "_id": "summary/aur/TRDME", "_rev": "1-6964844a3662de9e00af58b846102d1c", "main": "deep sleep", "dubious": true },
{ "_id": "summary/aur/TsAN",  "main": "small cattle(?)/sheep and goats(?)", "dubious": true },
{ "_id": "summary/aur/TsBI",  "main": "beauty/decorative/gazelle(?)", "dubious": true },
{ "_id": "summary/aur/TsD",   "main": "side", "dubious": true },
{ "_id": "summary/aur/TsEL",  "main": "neigh/cry shrilly", "dubious": true },
{ "_id": "summary/aur/TsER",  "main": "midday/noon", "dubious": true },
{ "_id": "summary/aur/TShO",  "main": "nine", "dubious": true },
{ "_id": "summary/aur/TsHQ",  "main": "laugh/jest", "dubious": true },
{ "_id": "summary/aur/TsL",   "main": "shadow", "dubious": true },
{ "_id": "summary/aur/TsLE",  "main": "rush/roast(?)", "dubious": true },
{ "_id": "summary/aur/TsLH",  "main": "prosper/advance", "dubious": true },
{ "_id": "summary/aur/TsLL",  "main": "shadow/darken", "dubious": true },
{ "_id": "summary/aur/TsLY", "_rev": "2-1245fde5971c4df78e564377630bb737", "main": "roast/darken", "dubious": true },
{ "_id": "summary/aur/TsMA",  "main": "thirst", "dubious": true },
{ "_id": "summary/aur/TsMD",  "main": "couple/pair/bind/join", "dubious": true },
{ "_id": "summary/aur/TsMR",  "main": "wool(?)", "dubious": true },
{ "_id": "summary/aur/TsMT",  "main": "annihilate/end (said to often be hyperbole?)", "dubious": true },
{ "_id": "summary/aur/TsNE",  "main": "shield (a literal shield, large enough to cover the whole body)", "dubious": true },
{ "_id": "summary/aur/TsOD",  "main": "step/march/pace", "dubious": true },
{ "_id": "summary/aur/TsOE",  "main": "incline/tip/stoop", "dubious": true },
{ "_id": "summary/aur/TsOQ",  "main": "cry out/call/clamor", "dubious": true },
{ "_id": "summary/aur/TsOR",  "main": "be small/insignificant", "dubious": true },
{ "_id": "summary/aur/TsPE",  "main": "keep watch/spy/overlay (as with decorative plating)", "dubious": true },
{ "_id": "summary/aur/TsPN",  "main": "hide/treasure up/north", "dubious": true },
{ "_id": "summary/aur/TsRP",  "main": "smelt/refine/test", "dubious": true },
{ "_id": "summary/aur/TsRR",  "main": "bind/confine/distress/vex/adversary/narrow/tight/cramped/rocky/sharp", "dubious": true },
{ "_id": "summary/aur/TsUD",  "main": "hunt", "dubious": true },
{ "_id": "summary/aur/TsUE",  "main": "lay charge upon/command/order", "dubious": true },
{ "_id": "summary/aur/TsUM",  "main": "fast/abstain from food", "dubious": true },
{ "_id": "summary/aur/TsUQ",  "main": "constrain/pressure/distress/melt", "dubious": true },
{ "_id": "summary/aur/TsUR",  "main": "confine/bind/besiege/delineate/rocky cliff/back of neck(?)", "dubious": true },
{ "_id": "summary/aur/TsYTs", "main": "blossom/shine/sparkle", "dubious": true },
{ "_id": "summary/aur/TULDE", "_rev": "1-fd7a57a46866293c725cf946b94132b4", "main": "generation", "dubious": true },
{ "_id": "summary/aur/TUR",   "main": "seek out/select/scout/explore/reconnoiter", "dubious": true },
{ "_id": "summary/aur/URMSh", "_rev": "1-dacb07cfccfff0d7160797b8314ad33d", "main": "creep", "dubious": true },
{ "_id": "summary/aur/UTsA", "_rev": "1-76c172f449df13695bf4cd5ee50f1227", "prefix": "(cause to)", "main": "go forth" },
{ "_id": "summary/aur/YAL",   "main": "show willingness/undertake/resolve", "dubious": true },
{ "_id": "summary/aur/YASh",  "main": "despair", "dubious": true },
{ "_id": "summary/aur/YBL",   "main": "conduct/bear along/produce/stream/horn", "dubious": true },
{ "_id": "summary/aur/YD",    "main": "hand/power/reach", "dubious": true },
{ "_id": "summary/aur/YDE",   "main": "throw/cast", "dubious": true },
{ "_id": "summary/aur/YEB",   "main": "give", "dubious": true },
{ "_id": "summary/aur/YER",   "main": "be proud/haughty", "dubious": true },
{ "_id": "summary/aur/YEUE", "_rev": "1-33bfc72d3f20bfb6f69a4a2de8f01180", "main": "YEUE" },
{ "_id": "summary/aur/YGE",   "main": "suffer/grieve", "dubious": true },
{ "_id": "summary/aur/YGO",   "main": "toil/grow weary", "dubious": true },
{ "_id": "summary/aur/YHD",   "main": "be united/one", "dubious": true },
{ "_id": "summary/aur/YHL",   "main": "await/expect/hope for", "dubious": true },
{ "_id": "summary/aur/YKH",   "main": "decide/adjudge/prove", "dubious": true },
{ "_id": "summary/aur/YLD",   "main": "bear/beget/child", "dubious": true },
{ "_id": "summary/aur/YLL",   "main": "howl", "dubious": true },
{ "_id": "summary/aur/YM", "_rev": "2-b102cb81ba36406a9768c081a214643c", "main": "sea" },
{ "_id": "summary/aur/YMN",   "main": "(choose/go) right/south (hand/side)", "dubious": true },
{ "_id": "summary/aur/YNE",   "main": "suppress/oppress/maltreat", "dubious": true },
{ "_id": "summary/aur/YNQ",   "main": "suck/suckle", "dubious": true },
{ "_id": "summary/aur/YOD",   "main": "meet/gather (at an appointed place/time)", "dubious": true },
{ "_id": "summary/aur/YOL",   "main": "gain/profit/benefit (wickedly?)", "dubious": true },
{ "_id": "summary/aur/YON",   "main": "purpose/intent (most used as 'for the sake of')", "dubious": true },
{ "_id": "summary/aur/YOP",   "main": "be weary/faint", "dubious": true },
{ "_id": "summary/aur/YOR",   "main": "dense forest/thicket", "dubious": true },
{ "_id": "summary/aur/YOTs",  "main": "advise/counsel", "dubious": true },
{ "_id": "summary/aur/YPE",   "main": "beautiful", "dubious": true },
{ "_id": "summary/aur/YQD",   "main": "kindle/burn", "dubious": true },
{ "_id": "summary/aur/YQR",   "main": "be precious/prized/appraised", "dubious": true },
{ "_id": "summary/aur/YQSh",  "main": "lay bait/lure", "dubious": true },
{ "_id": "summary/aur/YRA",   "main": "fear", "dubious": true },
{ "_id": "summary/aur/YRD",   "main": "descend", "dubious": true },
{ "_id": "summary/aur/YRE",   "main": "throw/shoot/rain/teach", "dubious": true },
{ "_id": "summary/aur/YRH",   "main": "month/moon", "dubious": true },
{ "_id": "summary/aur/YRK",   "main": "thigh/loin/flank", "dubious": true },
{ "_id": "summary/aur/YRSh",  "main": "possess/inherit/take/dispossess", "dubious": true },
{ "_id": "summary/aur/YSD",   "main": "establish/found/fix", "dubious": true },
{ "_id": "summary/aur/YShB",  "main": "sit/remain/dwell", "dubious": true },
{ "_id": "summary/aur/YShE",  "main": "advise soundly/efficiently", "dubious": true },
{ "_id": "summary/aur/YShM",  "main": "be desolate", "dubious": true },
{ "_id": "summary/aur/YShO",  "main": "deliver/rescue", "dubious": true },
{ "_id": "summary/aur/YShR",  "main": "be smooth/straight/right", "dubious": true },
{ "_id": "summary/aur/YShRAL", "_rev": "1-df53c8c069a328cee81f0da80a59d54e", "main": "YShRAL" },
{ "_id": "summary/aur/YShSh", "main": "be/exist/substance", "dubious": true },
{ "_id": "summary/aur/YSP",   "main": "add/increase/again", "dubious": true },
{ "_id": "summary/aur/YSR",   "main": "discipline/chasten/admonish", "dubious": true },
{ "_id": "summary/aur/YTD",   "main": "peg/pin", "dubious": true },
{ "_id": "summary/aur/YThB",  "main": "be good/beneficial/pleasing", "dubious": true },
{ "_id": "summary/aur/YTM",   "main": "be alone/bereaved/orphan", "dubious": true },
{ "_id": "summary/aur/YTN",   "main": "be perpetual/perennial/ever-flowing", "dubious": true },
{ "_id": "summary/aur/YTR",   "main": "be remaining/excess/abundant", "dubious": true },
{ "_id": "summary/aur/YTsB",  "main": "set/place/stand", "dubious": true },
{ "_id": "summary/aur/YTsG",  "main": "set/place (more vivid/forcible than ShM)", "dubious": true },
{ "_id": "summary/aur/YTsQ",  "main": "pour/cast/flow", "dubious": true },
{ "_id": "summary/aur/YTsT",  "main": "kindle/burn", "dubious": true },
{ "_id": "summary/aur/YYN",   "main": "wine", "dubious": true },
{ "_id": "summary/aur/ZAB", "_rev": "1-4ac734cd1c0aca842699571d33d56c46", "main": "wolf", "dubious": true },
{ "_id": "summary/aur/ZAT", "_rev": "1-4cd5f21226a5626bf2d22dbbbc1a73ac", "main": "this/here" },
{ "_id": "summary/aur/ZBD", "_rev": "1-fbd07e9143a7a960a8a71851083adc3f", "main": "bestow/endow/gift", "dubious": true },
{ "_id": "summary/aur/ZBH", "_rev": "1-76fce640a48ae3ad8be935b67c67d117", "main": "sacrifice/slaughter", "dubious": true },
{ "_id": "summary/aur/ZBL", "_rev": "1-01e3d014bda1cf39e4a59274fcbe2508", "main": "elevate/high/exalt", "dubious": true },
{ "_id": "summary/aur/ZEB", "_rev": "1-a29d71bf62d37a1f26c9a5c464e443e2", "main": "gold", "dubious": true },
{ "_id": "summary/aur/ZER", "_rev": "1-d2d6af0f9232b0f287e3b75217f56bc2", "main": "instruct/warn/admonish/shine", "dubious": true },
{ "_id": "summary/aur/ZKE", "_rev": "1-8c9650ed160948124acb928188ad5607", "main": "be (morally) clean", "dubious": true },
{ "_id": "summary/aur/ZKK", "_rev": "1-c52fcb1305bf64128932226d7fee39f1", "main": "be bright/clean/pure", "dubious": true },
{ "_id": "summary/aur/ZKR", "_rev": "2-e88737f5c4494802d5368fa9ffdb99c7", "main": "remember/male", "dubious": true },
{ "_id": "summary/aur/ZLL", "_rev": "1-f153c7fa5c446c58c5634ab2e2b513fe", "main": "be worthless/light", "dubious": true },
{ "_id": "summary/aur/ZMM", "_rev": "1-8afde9ee7af610765a2c229b263caad9", "main": "consider/purpose/devise", "dubious": true },
{ "_id": "summary/aur/ZMR", "_rev": "1-af244458d3f0041eb437a2f08ab08489", "main": "make music (in praise)", "dubious": true },
{ "_id": "summary/aur/ZNB", "_rev": "1-e8277236ae92bb4c1b4f133dcba74164", "main": "tail", "dubious": true },
{ "_id": "summary/aur/ZNE", "_rev": "1-62f50b00237070b5c98a52ba9ee919a4", "main": "harlot/fornicate", "dubious": true },
{ "_id": "summary/aur/ZNH", "_rev": "1-34d16b3c5ddb8475a089a1f3de3af16a", "main": "reject/spurn", "dubious": true },
{ "_id": "summary/aur/ZOM", "_rev": "1-870e7695488c21d74bc63ab7ed17a9bb", "main": "be indignant", "dubious": true },
{ "_id": "summary/aur/ZOP", "_rev": "1-25fc96b2319e9ba80c0a44cf3acc1d3f", "main": "be vexed/enraged", "dubious": true },
{ "_id": "summary/aur/ZOQ", "_rev": "1-b8cf2cfd8551b87adac7b5d864b3edd1", "main": "cry out/call", "dubious": true },
{ "_id": "summary/aur/ZOR", "_rev": "1-9ff1a3294e086ecfa129bde58344d37b", "main": "be small/few/trifle", "dubious": true },
{ "_id": "summary/aur/ZQN", "_rev": "1-a68073a05a4914020fc92ab7858bef31", "main": "be old/beard", "dubious": true },
{ "_id": "summary/aur/ZQQ", "_rev": "1-72ac239494302bdd19fe08d6024eb108", "main": "refine/purify", "dubious": true },
{ "_id": "summary/aur/ZRE", "_rev": "1-10d40b6e106d60b096a142cf46f61ccb", "main": "scatter/fan/winnow", "dubious": true },
{ "_id": "summary/aur/ZRH", "_rev": "1-a83b0097f6ce1e559ce60d5a62871043", "main": "rise/dawn/native/east", "dubious": true },
{ "_id": "summary/aur/ZRM", "_rev": "1-9d12aad07765f293773bfafddd8be189", "main": "pour/flood/issue", "dubious": true },
{ "_id": "summary/aur/ZRO", "_rev": "1-fe5b3018e05c0c8f72f1d0d00cc3fdc4", "main": "seed/offspring" },
{ "_id": "summary/aur/ZRQ", "_rev": "1-8928b2ad6f6777b7f2d7b4fa61a1a1b4", "main": "toss/throw (a volume)", "dubious": true },
{ "_id": "summary/aur/ZUB", "_rev": "1-1c27d222211e3f1e36f097c3b283c1d2", "main": "flow/gush/issue", "dubious": true },
{ "_id": "summary/aur/ZUL", "_rev": "1-e033cf7016832b813796ee9979f40404", "main": "remove/except/besides", "dubious": true },
{ "_id": "summary/aur/ZUO", "_rev": "1-24f3519abbd083b0a198ebda6dce6715", "main": "tremble/quake", "dubious": true },
{ "_id": "summary/aur/ZUR", "_rev": "1-3f018e3048bc860c4a1d6f32e3ebaaf1", "main": "be strange/foreign", "dubious": true },
{ "_id": "summary/aur/ZUZ", "_rev": "1-06ddd1f42299379f9a7c609a67fbc967", "main": "move/transition?", "dubious": true },
{ "_id": "summary/aur/ZYD", "_rev": "1-ea88d20a4cce1195bbd6f553538b2135", "main": "be insolent/presumptous", "dubious": true },
{ "_id": "summary/aur/ZYT", "_rev": "1-bf0e88ff18ded8a56ba1f40e5d89146b", "main": "'olive' tree", "dubious": true }
  ]
}
